…
Significant Interactions (Edge, FDR<0.05): 341 
No significant Diagnosis results for degree (FDR<0.05)
NULL
Significant Diagnosis edge results (n = 4 ): /data1/tqi/share/after_freesurfer/FILE/test_any_2/MIND_GAM_DK318/Significant_Diagnosis_GAM_DK318_edge_results.csv 
# A tibble: 4 × 14
  edge_idx roi_1   roi_2     n     R2  p_Diag p_Age   p_Int p_Diag_FDR p_Age_FDR
     <int> <chr>   <chr> <dbl>  <dbl>   <dbl> <dbl>   <dbl>      <dbl>     <dbl>
1    19014 lh_pre… rh_l…   207 0.0669 4.69e-4 0.515 0.00317     0.0412     0.693
2    19405 lh_pre… rh_l…   207 0.0693 3.35e-4 0.727 0.00777     0.0412     0.835
3    36414 lh_pre… rh_r…   207 0.0500 9.06e-4 0.669 0.0214      0.0455     0.799
4    50066 rh_sup… rh_i…   207 0.0868 6.14e-4 0.689 0.00231     0.0412     0.811
# ℹ 4 more variables: p_Int_FDR <dbl>, mean_TD <dbl>, mean_DD <dbl>,
#   direction <chr>
Significant Age degree results (n = 126 ): /data1/tqi/share/after_freesurfer/FILE/test_any_2/MIND_GAM_DK318/Significant_Age_GAM_DK318_degree_results.csv 
# A tibble: 126 × 11
   feature         n     R2 p_Diag   p_Age  p_Int p_Diag_FDR p_Age_FDR p_Int_FDR
   <chr>       <dbl>  <dbl>  <dbl>   <dbl>  <dbl>      <dbl>     <dbl>     <dbl>
 1 lh_banksst…   207 0.105     NaN 8.89e-4 0.0145        NaN  0.00657      0.171
 2 lh_caudala…   207 0.0301    NaN 1.51e-2 0.454         NaN  0.0413       0.599
 3 lh_caudalm…   207 0.0438    NaN 5.79e-3 0.975         NaN  0.0206       0.981
 4 lh_fusifor…   207 0.0495    NaN 5.30e-4 0.0944        NaN  0.00443      0.304
 5 lh_fusifor…   207 0.0350    NaN 1.10e-2 0.141         NaN  0.0333       0.365
 6 lh_fusifor…   207 0.119     NaN 2.51e-5 0.0331        NaN  0.000955     0.204
 7 lh_fusifor…   207 0.0831    NaN 4.20e-3 0.0300        NaN  0.0163       0.204
 8 lh_inferio…   207 0.0765    NaN 2.46e-3 0.518         NaN  0.0120       0.651
 9 lh_inferio…   207 0.112     NaN 5.12e-5 0.409         NaN  0.00116      0.575
10 lh_inferio…   207 0.0465    NaN 1.16e-2 0.253         NaN  0.0340       0.440
# ℹ 116 more rows
# ℹ 2 more variables: age_cor <dbl>, direction <chr>
Significant Age edge results (n = 4925 ): /data1/tqi/share/after_freesurfer/FILE/test_any_2/MIND_GAM_DK318/Significant_Age_GAM_DK318_edge_results.csv 
# A tibble: 4,925 × 13
   edge_idx roi_1 roi_2     n     R2 p_Diag   p_Age   p_Int p_Diag_FDR p_Age_FDR
      <int> <chr> <chr> <dbl>  <dbl>  <dbl>   <dbl>   <dbl>      <dbl>     <dbl>
 1        3 lh_b… lh_c…   207 0.0627    NaN 4.20e-3 3.97e-1        NaN  0.0456  
 2       16 lh_b… lh_c…   207 0.111     NaN 3.39e-4 1.91e-2        NaN  0.00994 
 3       74 lh_c… lh_f…   207 0.145     NaN 2.19e-6 4.52e-4        NaN  0.000392
 4       76 lh_c… lh_f…   207 0.0676    NaN 4.49e-3 7.81e-2        NaN  0.0474  
 5       77 lh_e… lh_f…   207 0.0346    NaN 4.07e-3 3.66e-1        NaN  0.0448  
 6       86 lh_c… lh_f…   207 0.0949    NaN 3.94e-4 2.02e-2        NaN  0.0109  
 7      123 lh_c… lh_f…   207 0.0296    NaN 2.56e-3 2.40e-1        NaN  0.0339  
 8      156 lh_c… lh_i…   207 0.0370    NaN 1.16e-3 2.36e-1        NaN  0.0210  
 9      160 lh_c… lh_i…   207 0.0833    NaN 1.67e-4 2.84e-1        NaN  0.00656 
10      163 lh_c… lh_i…   207 0.0773    NaN 1.62e-3 8.72e-1        NaN  0.0257  
# ℹ 4,915 more rows
# ℹ 3 more variables: p_Int_FDR <dbl>, age_cor <dbl>, direction <chr>
…
