…
=== Generating significant results tables ===
Significant Diagnosis degree results (n = 114 ): /data/home/tqi/data1/share/after_freesurfer/FILE/MIND_DK318_ANOVA/Significant_Diagnosis_DK318_degree_results.csv 
# A tibble: 114 × 18
   feature                n p_Diagnosis p_AgeGroup p_Interaction p_Diagnosis_FDR
   <chr>              <int>       <dbl>      <dbl>         <dbl>           <dbl>
 1 rh_precentral_par…   246     3.72e-8   1.73e- 6        0.0276       0.0000118
 2 rh_precentral_par…   246     1.55e-6   3.37e-10        0.122        0.000247 
 3 rh_supramarginal_…   246     5.43e-6   1.30e- 3        0.243        0.000575 
 4 lh_superiortempor…   246     1.26e-5   5.15e- 2        0.966        0.000912 
 5 rh_supramarginal_…   246     1.72e-5   5.14e- 2        0.275        0.000912 
 6 rh_insula_part3      246     1.71e-5   2.56e- 3        0.0473       0.000912 
 7 rh_inferiorpariet…   246     2.24e-5   2.78e- 1        0.406        0.00102  
 8 lh_insula_part3      246     4.22e-5   4.23e- 3        0.619        0.00168  
 9 rh_precentral_par…   246     7.47e-5   2.10e- 3        0.143        0.00264  
10 lh_supramarginal_…   246     1.48e-4   1.71e- 2        0.911        0.00430  
# ℹ 104 more rows
# ℹ 12 more variables: p_AgeGroup_FDR <dbl>, p_Interaction_FDR <dbl>,
#   p_Interaction_FDR_diagSig <dbl>, eta2_Diagnosis <dbl>, eta2_AgeGroup <dbl>,
#   eta2_Interaction <dbl>, cohens_f_Diagnosis <dbl>, cohens_f_AgeGroup <dbl>,
#   cohens_f_Interaction <dbl>, mean_TD <dbl>, mean_DD <dbl>, direction <chr>
Significant Diagnosis edge results (n = 2542 ): /data/home/tqi/data1/share/after_freesurfer/FILE/MIND_DK318_ANOVA/Significant_Diagnosis_DK318_edge_results.csv 
# A tibble: 2,542 × 21
   edge_id     i     j region_i            region_j     n p_Diagnosis p_AgeGroup
     <int> <int> <int> <chr>               <chr>    <int>       <dbl>      <dbl>
 1   31358   233   251 rh_parstriangulari… rh_prec…   246     2.42e-9   1.39e-12
 2   38766   263   279 rh_rostralanterior… rh_supe…   246     2.34e-9   2.84e- 5
 3   31655    29   253 lh_inferiortempora… rh_prec…   246     6.42e-9   2.37e- 2
 4   31285   160   251 rh_bankssts_part1   rh_prec…   246     2.84e-8   9.15e- 5
 5   31628     2   253 lh_bankssts_part2   rh_prec…   246     1.43e-8   5.48e- 5
 6   31656    30   253 lh_inferiortempora… rh_prec…   246     2.77e-8   1.08e- 1
 7   31687    61   253 lh_middletemporal_… rh_prec…   246     1.75e-8   1.26e- 2
 8   31689    63   253 lh_middletemporal_… rh_prec…   246     1.38e-8   1.17e- 4
 9   38660   157   279 lh_insula_part2     rh_supe…   246     1.91e-8   5.29e- 3
10   38661   158   279 lh_insula_part3     rh_supe…   246     1.92e-8   3.24e- 2
# ℹ 2,532 more rows
# ℹ 13 more variables: p_Interaction <dbl>, p_Diagnosis_FDR <dbl>,
#   p_AgeGroup_FDR <dbl>, p_Interaction_FDR <dbl>, eta2_Diagnosis <dbl>,
#   eta2_AgeGroup <dbl>, eta2_Interaction <dbl>, cohens_f_Diagnosis <dbl>,
#   cohens_f_AgeGroup <dbl>, cohens_f_Interaction <dbl>, mean_TD <dbl>,
#   mean_DD <dbl>, direction <chr>
Significant AgeGroup degree results (n = 151 ): /data/home/tqi/data1/share/after_freesurfer/FILE/MIND_DK318_ANOVA/Significant_AgeGroup_DK318_degree_results.csv 
# A tibble: 151 × 18
   feature                n p_Diagnosis p_AgeGroup p_Interaction p_Diagnosis_FDR
   <chr>              <int>       <dbl>      <dbl>         <dbl>           <dbl>
 1 rh_superiorfronta…   246  0.0114       7.50e-12         0.220        0.0376  
 2 rh_precentral_par…   246  0.00000155   3.37e-10         0.122        0.000247
 3 lh_precentral_par…   246  0.0472       6.70e- 8         0.271        0.0920  
 4 rh_lateralorbitof…   246  0.0492       1.16e- 7         0.338        0.0949  
 5 lh_supramarginal_…   246  0.00436      2.00e- 7         0.309        0.0240  
 6 lh_lateraloccipit…   246  0.387        3.46e- 7         0.948        0.466   
 7 lh_superiorfronta…   246  0.0869       4.04e- 7         0.495        0.141   
 8 lh_precentral_par…   246  0.0252       5.43e- 7         0.229        0.0626  
 9 lh_superiorfronta…   246  0.0409       5.01e- 7         0.474        0.0839  
10 lh_lateralorbitof…   246  0.00978      6.83e- 7         0.792        0.0331  
# ℹ 141 more rows
# ℹ 12 more variables: p_AgeGroup_FDR <dbl>, p_Interaction_FDR <dbl>,
#   p_Interaction_FDR_diagSig <dbl>, eta2_Diagnosis <dbl>, eta2_AgeGroup <dbl>,
#   eta2_Interaction <dbl>, cohens_f_Diagnosis <dbl>, cohens_f_AgeGroup <dbl>,
#   cohens_f_Interaction <dbl>, mean_Child <dbl>, mean_Adult <dbl>,
#   direction <chr>
Significant AgeGroup edge results (n = 10155 ): /data/home/tqi/data1/share/after_freesurfer/FILE/MIND_DK318_ANOVA/Significant_AgeGroup_DK318_edge_results.csv 
# A tibble: 10,155 × 21
   edge_id     i     j region_i            region_j     n p_Diagnosis p_AgeGroup
     <int> <int> <int> <chr>               <chr>    <int>       <dbl>      <dbl>
 1   31357   232   251 rh_parstriangulari… rh_prec…   246  0.00000114   1.23e-15
 2   31198    73   251 lh_parstriangulari… rh_prec…   246  0.0000445    3.63e-14
 3    9664    73   140 lh_parstriangulari… lh_supe…   246  0.342        1.05e-13
 4   31243   118   251 lh_superiorfrontal… rh_prec…   246  0.000301     3.46e-13
 5   30861   233   249 rh_parstriangulari… rh_prec…   246  0.00000321   5.99e-13
 6    3990    74    90 lh_parstriangulari… lh_prec…   246  0.00249      1.56e-12
 7    4151    56    92 lh_medialorbitofro… lh_prec…   246  0.00146      2.15e-12
 8   30702    74   249 lh_parstriangulari… rh_prec…   246  0.00000886   1.20e-12
 9   30775   147   249 lh_supramarginal_p… rh_prec…   246  0.00260      2.15e-12
10   31171    46   251 lh_lateralorbitofr… rh_prec…   246  0.00156      1.90e-12
# ℹ 10,145 more rows
# ℹ 13 more variables: p_Interaction <dbl>, p_Diagnosis_FDR <dbl>,
#   p_AgeGroup_FDR <dbl>, p_Interaction_FDR <dbl>, eta2_Diagnosis <dbl>,
#   eta2_AgeGroup <dbl>, eta2_Interaction <dbl>, cohens_f_Diagnosis <dbl>,
#   cohens_f_AgeGroup <dbl>, cohens_f_Interaction <dbl>, mean_Child <dbl>,
#   mean_Adult <dbl>, direction <chr>
…
