…
=== Generating significant results tables ===
Significant Diagnosis degree results (n = 84 ): /data/home/tqi/data1/share/after_freesurfer/FILE/MIND_ANOVA/Significant_Diagnosis_DK318_degree_results.csv 
# A tibble: 84 × 17
   feature                n p_Diagnosis p_AgeGroup p_Interaction p_Diagnosis_FDR
   <chr>              <int>       <dbl>      <dbl>         <dbl>           <dbl>
 1 rh_precentral_par…   289     8.98e-8   5.99e- 7        0.0909       0.0000286
 2 lh_superiortempor…   289     3.30e-6   2.67e- 2        0.975        0.000524 
 3 rh_precentral_par…   289     7.40e-6   5.21e-12        0.416        0.000784 
 4 rh_inferiorpariet…   289     2.03e-5   2.95e- 1        0.659        0.00162  
 5 rh_supramarginal_…   289     1.18e-4   2.12e- 4        0.897        0.00749  
 6 lh_medialorbitofr…   289     2.23e-4   1.84e- 3        0.645        0.00885  
 7 rh_precentral_par…   289     2.22e-4   7.46e- 4        0.304        0.00885  
 8 rh_supramarginal_…   289     1.75e-4   1.47e- 2        0.700        0.00885  
 9 lh_inferiortempor…   289     4.28e-4   4.10e- 1        0.448        0.0136   
10 lh_precuneus_part7   289     4.25e-4   3.69e- 4        0.925        0.0136   
# ℹ 74 more rows
# ℹ 11 more variables: p_AgeGroup_FDR <dbl>, p_Interaction_FDR <dbl>,
#   eta2_Diagnosis <dbl>, eta2_AgeGroup <dbl>, eta2_Interaction <dbl>,
#   cohens_f_Diagnosis <dbl>, cohens_f_AgeGroup <dbl>,
#   cohens_f_Interaction <dbl>, mean_TD <dbl>, mean_DD <dbl>, direction <chr>
Significant Diagnosis edge results (n = 1595 ): /data/home/tqi/data1/share/after_freesurfer/FILE/MIND_ANOVA/Significant_Diagnosis_DK318_edge_results.csv 
# A tibble: 1,595 × 21
   edge_id     i     j region_i            region_j     n p_Diagnosis p_AgeGroup
     <int> <int> <int> <chr>               <chr>    <int>       <dbl>      <dbl>
 1   31655    29   253 lh_inferiortempora… rh_prec…   289    9.94e-10    1.05e-2
 2   31656    30   253 lh_inferiortempora… rh_prec…   289    3.76e- 8    4.80e-2
 3   31673    47   253 lh_lateralorbitofr… rh_prec…   289    1.56e- 8    2.24e-7
 4   31684    58   253 lh_medialorbitofro… rh_prec…   289    2.34e- 8    1.16e-5
 5   31689    63   253 lh_middletemporal_… rh_prec…   289    3.26e- 8    8.07e-5
 6   31628     2   253 lh_bankssts_part2   rh_prec…   289    5.15e- 8    1.65e-5
 7   31843   217   253 rh_medialorbitofro… rh_prec…   289    9.06e- 8    3.84e-3
 8   38766   263   279 rh_rostralanterior… rh_supe…   289    9.28e- 8    3.85e-5
 9   31687    61   253 lh_middletemporal_… rh_prec…   289    1.86e- 7    8.14e-3
10   31730   104   253 lh_rostralanterior… rh_prec…   289    1.69e- 7    8.53e-6
# ℹ 1,585 more rows
# ℹ 13 more variables: p_Interaction <dbl>, p_Diagnosis_FDR <dbl>,
#   p_AgeGroup_FDR <dbl>, p_Interaction_FDR <dbl>, eta2_Diagnosis <dbl>,
#   eta2_AgeGroup <dbl>, eta2_Interaction <dbl>, cohens_f_Diagnosis <dbl>,
#   cohens_f_AgeGroup <dbl>, cohens_f_Interaction <dbl>, mean_TD <dbl>,
#   mean_DD <dbl>, direction <chr>
Significant AgeGroup degree results (n = 188 ): /data/home/tqi/data1/share/after_freesurfer/FILE/MIND_ANOVA/Significant_AgeGroup_DK318_degree_results.csv 
# A tibble: 188 × 17
   feature                n p_Diagnosis p_AgeGroup p_Interaction p_Diagnosis_FDR
   <chr>              <int>       <dbl>      <dbl>         <dbl>           <dbl>
 1 rh_superiorfronta…   289  0.0369       2.03e-14        0.132         0.0969  
 2 rh_precentral_par…   289  0.00000740   5.21e-12        0.416         0.000784
 3 lh_precentral_par…   289  0.282        2.96e- 9        0.0351        0.383   
 4 rh_lateralorbitof…   289  0.0436       4.59e- 9        0.273         0.107   
 5 lh_superiorfronta…   289  0.292        1.01e- 8        0.178         0.392   
 6 lh_precentral_par…   289  0.0727       1.63e- 8        0.101         0.147   
 7 lh_superiorfronta…   289  0.0893       2.78e- 8        0.908         0.166   
 8 lh_rostralmiddlef…   289  0.0129       4.17e- 8        0.609         0.0499  
 9 lh_supramarginal_…   289  0.00440      4.31e- 8        0.371         0.0281  
10 rh_inferiorpariet…   289  0.0235       4.85e- 8        0.788         0.0718  
# ℹ 178 more rows
# ℹ 11 more variables: p_AgeGroup_FDR <dbl>, p_Interaction_FDR <dbl>,
#   eta2_Diagnosis <dbl>, eta2_AgeGroup <dbl>, eta2_Interaction <dbl>,
#   cohens_f_Diagnosis <dbl>, cohens_f_AgeGroup <dbl>,
#   cohens_f_Interaction <dbl>, mean_Child <dbl>, mean_Adult <dbl>,
#   direction <chr>
Significant AgeGroup edge results (n = 12237 ): /data/home/tqi/data1/share/after_freesurfer/FILE/MIND_ANOVA/Significant_AgeGroup_DK318_edge_results.csv 
# A tibble: 12,237 × 21
   edge_id     i     j region_i            region_j     n p_Diagnosis p_AgeGroup
     <int> <int> <int> <chr>               <chr>    <int>       <dbl>      <dbl>
 1   31357   232   251 rh_parstriangulari… rh_prec…   289  0.0000230    4.35e-17
 2   31198    73   251 lh_parstriangulari… rh_prec…   289  0.0000496    3.07e-16
 3   30702    74   249 lh_parstriangulari… rh_prec…   289  0.00000736   1.03e-15
 4    3990    74    90 lh_parstriangulari… lh_prec…   289  0.0106       3.01e-15
 5   30861   233   249 rh_parstriangulari… rh_prec…   289  0.00000221   2.93e-15
 6   31171    46   251 lh_lateralorbitofr… rh_prec…   289  0.00126      2.26e-14
 7   31243   118   251 lh_superiorfrontal… rh_prec…   289  0.00397      1.81e-14
 8   39030   249   280 rh_precentral_part3 rh_supe…   289  0.00353      2.24e-14
 9   30674    46   249 lh_lateralorbitofr… rh_prec…   289  0.000769     2.90e-14
10   31199    74   251 lh_parstriangulari… rh_prec…   289  0.00000376   5.15e-14
# ℹ 12,227 more rows
# ℹ 13 more variables: p_Interaction <dbl>, p_Diagnosis_FDR <dbl>,
#   p_AgeGroup_FDR <dbl>, p_Interaction_FDR <dbl>, eta2_Diagnosis <dbl>,
#   eta2_AgeGroup <dbl>, eta2_Interaction <dbl>, cohens_f_Diagnosis <dbl>,
#   cohens_f_AgeGroup <dbl>, cohens_f_Interaction <dbl>, mean_Child <dbl>,
#   mean_Adult <dbl>, direction <chr>
…
