…
   feature         n     R2  p_Diag   p_Age p_Int p_Diag_FDR p_Age_FDR p_Int_FDR
   <chr>       <dbl>  <dbl>   <dbl>   <dbl> <dbl>      <dbl>     <dbl>     <dbl>
 1 lh_banksst…   307 0.114  3.68e-4 1.71e-3 0.134    0.0361    0.00861      1.00
 2 lh_banksst…   307 0.0582 1.57e-3 1.64e-1 0.244    0.0500    0.214        1.00
 3 lh_inferio…   307 0.0404 1.14e-3 9.55e-1 0.221    0.0455    0.955        1.00
 4 lh_lateral…   307 0.102  7.85e-4 4.66e-4 0.317    0.0450    0.00356      1.00
 5 lh_lateral…   307 0.0631 8.50e-4 4.29e-3 0.390    0.0450    0.0165       1.00
 6 lh_medialo…   307 0.103  3.72e-4 3.46e-3 0.378    0.0361    0.0149       1.00
 7 lh_precune…   307 0.0961 1.05e-3 1.39e-2 0.719    0.0455    0.0369       1.00
 8 lh_superio…   307 0.122  1.37e-5 1.56e-1 0.573    0.00436   0.206        1.00
 9 rh_parstri…   307 0.0527 1.34e-3 6.76e-2 0.692    0.0475    0.113        1.00
10 rh_suprama…   307 0.0822 4.54e-4 3.40e-2 0.347    0.0361    0.0680       1.00
# ℹ 3 more variables: mean_TD <dbl>, mean_DD <dbl>, direction <chr>
Significant Diagnosis edge results (n = 45 ): /data1/tqi/share/after_freesurfer/FILE/MIND_GAM/Significant_Diagnosis_GAM_DK318_edge_results.csv 
# A tibble: 45 × 14
   edge_idx roi_1 roi_2     n     R2  p_Diag   p_Age  p_Int p_Diag_FDR p_Age_FDR
      <int> <chr> <chr> <dbl>  <dbl>   <dbl>   <dbl>  <dbl>      <dbl>     <dbl>
 1     2175 lh_i… lh_p…   307 0.0564 1.14e-5 3.15e-1 0.287     0.0282    0.507  
 2     5346 lh_p… lh_r…   307 0.121  3.40e-5 1.05e-2 0.645     0.0397    0.0622 
 3     7674 lh_l… lh_s…   307 0.0933 2.49e-5 8.49e-2 0.377     0.0357    0.233  
 4    12157 lh_p… lh_i…   307 0.0894 3.85e-5 3.09e-3 0.464     0.0440    0.0277 
 5    12335 lh_p… lh_i…   307 0.0896 2.69e-5 5.05e-1 0.452     0.0375    0.666  
 6    13395 lh_i… rh_c…   307 0.0601 1.10e-5 6.16e-2 0.232     0.0282    0.192  
 7    14320 lh_s… rh_e…   307 0.136  1.20e-6 1.36e-4 0.233     0.00750   0.00303
 8    14327 lh_s… rh_e…   307 0.0645 1.95e-5 4.46e-1 0.803     0.0307    0.620  
 9    17070 lh_l… rh_i…   307 0.0782 3.40e-5 9.16e-3 0.109     0.0397    0.0574 
10    17086 lh_p… rh_i…   307 0.0855 4.71e-6 4.75e-3 0.0198    0.0158    0.0371 
# ℹ 35 more rows
# ℹ 4 more variables: p_Int_FDR <dbl>, mean_TD <dbl>, mean_DD <dbl>,
#   direction <chr>
Significant Age degree results (n = 139 ): /data1/tqi/share/after_freesurfer/FILE/MIND_GAM/Significant_Age_GAM_DK318_degree_results.csv 
# A tibble: 139 × 11
   feature         n     R2  p_Diag   p_Age p_Int p_Diag_FDR p_Age_FDR p_Int_FDR
   <chr>       <dbl>  <dbl>   <dbl>   <dbl> <dbl>      <dbl>     <dbl>     <dbl>
 1 lh_banksst…   307 0.114  3.68e-4 1.71e-3 0.134     0.0361 0.00861        1.00
 2 lh_caudala…   307 0.0368 4.36e-1 4.49e-3 0.736     0.994  0.0170         1.00
 3 lh_fusifor…   307 0.0765 3.15e-1 1.77e-5 0.169     0.843  0.000331       1.00
 4 lh_fusifor…   307 0.139  5.28e-2 1.44e-6 0.230     0.306  0.0000417      1.00
 5 lh_fusifor…   307 0.102  8.62e-1 4.05e-3 0.737     0.994  0.0165         1.00
 6 lh_inferio…   307 0.106  7.76e-1 2.08e-6 0.715     0.994  0.0000510      1.00
 7 lh_inferio…   307 0.0895 4.61e-2 4.19e-3 0.509     0.282  0.0165         1.00
 8 lh_inferio…   307 0.107  3.38e-1 6.17e-5 0.646     0.875  0.000854       1.00
 9 lh_inferio…   307 0.0850 4.57e-1 9.54e-4 0.968     0.994  0.00583        1.00
10 lh_inferio…   307 0.0719 8.47e-1 1.72e-2 0.337     0.994  0.0435         1.00
# ℹ 129 more rows
# ℹ 2 more variables: age_cor <dbl>, direction <chr>
Significant Age edge results (n = 7484 ): /data1/tqi/share/after_freesurfer/FILE/MIND_GAM/Significant_Age_GAM_DK318_edge_results.csv 
# A tibble: 7,484 × 13
   edge_idx roi_1          roi_2     n     R2  p_Diag   p_Age   p_Int p_Diag_FDR
      <int> <chr>          <chr> <dbl>  <dbl>   <dbl>   <dbl>   <dbl>      <dbl>
 1        2 lh_bankssts_p… lh_c…   307 0.0415 1.44e-1 3.63e-3 9.03e-1      0.836
 2        9 lh_caudalante… lh_c…   307 0.0203 9.31e-1 6.70e-3 8.36e-1      1.00 
 3       16 lh_bankssts_p… lh_c…   307 0.119  6.67e-1 1.65e-3 1.99e-2      1.00 
 4       18 lh_caudalante… lh_c…   307 0.0699 4.46e-1 4.91e-4 3.60e-1      1.00 
 5       36 lh_cuneus_par… lh_c…   307 0.0757 6.13e-1 6.97e-3 1.61e-1      1.00 
 6       44 lh_cuneus_par… lh_c…   307 0.0326 7.93e-1 7.21e-4 2.94e-1      1.00 
 7       53 lh_cuneus_par… lh_e…   307 0.0900 8.08e-1 3.61e-3 5.82e-2      1.00 
 8       59 lh_caudalmidd… lh_f…   307 0.0242 1.34e-1 2.88e-3 5.48e-1      0.812
 9       62 lh_caudalmidd… lh_f…   307 0.0240 6.26e-1 1.50e-3 4.20e-1      1.00 
10       74 lh_cuneus_par… lh_f…   307 0.121  3.33e-4 1.27e-5 2.80e-4      0.102
# ℹ 7,474 more rows
# ℹ 4 more variables: p_Age_FDR <dbl>, p_Int_FDR <dbl>, age_cor <dbl>,
#   direction <chr>
…
