…
=== Generating significant results tables ===
Significant Diagnosis degree results (n = 72 ): /data/home/tqi/data1/share/after_freesurfer/FILE/MIND_ANOVA/Significant_Diagnosis_DK318_degree_results.csv 
# A tibble: 72 × 18
   feature                n p_Diagnosis p_AgeGroup p_Interaction p_Diagnosis_FDR
   <chr>              <int>       <dbl>      <dbl>         <dbl>           <dbl>
 1 rh_precentral_par…   278 0.000000193   1.92e- 6        0.0957       0.0000614
 2 lh_superiortempor…   278 0.00000337    4.40e- 2        0.910        0.000535 
 3 rh_precentral_par…   278 0.0000177     7.36e-11        0.387        0.00188  
 4 rh_inferiorpariet…   278 0.0000353     2.97e- 1        0.607        0.00280  
 5 lh_medialorbitofr…   278 0.0000887     7.15e- 4        0.861        0.00564  
 6 rh_precentral_par…   278 0.000303      1.06e- 3        0.331        0.0121   
 7 rh_supramarginal_…   278 0.000229      4.87e- 4        0.820        0.0121   
 8 rh_supramarginal_…   278 0.000303      2.27e- 2        0.684        0.0121   
 9 lh_bankssts_part1    278 0.000451      7.71e- 3        0.0839       0.0146   
10 rh_insula_part3      278 0.000458      8.65e- 4        0.258        0.0146   
# ℹ 62 more rows
# ℹ 12 more variables: p_AgeGroup_FDR <dbl>, p_Interaction_FDR <dbl>,
#   p_Interaction_FDR_diagSig <dbl>, eta2_Diagnosis <dbl>, eta2_AgeGroup <dbl>,
#   eta2_Interaction <dbl>, cohens_f_Diagnosis <dbl>, cohens_f_AgeGroup <dbl>,
#   cohens_f_Interaction <dbl>, mean_TD <dbl>, mean_DD <dbl>, direction <chr>
Significant Diagnosis edge results (n = 1327 ): /data/home/tqi/data1/share/after_freesurfer/FILE/MIND_ANOVA/Significant_Diagnosis_DK318_edge_results.csv 
# A tibble: 1,327 × 21
   edge_id     i     j region_i            region_j     n p_Diagnosis p_AgeGroup
     <int> <int> <int> <chr>               <chr>    <int>       <dbl>      <dbl>
 1   31655    29   253 lh_inferiortempora… rh_prec…   278     1.01e-8   1.76e- 2
 2   31673    47   253 lh_lateralorbitofr… rh_prec…   278     4.71e-8   6.24e- 7
 3   31684    58   253 lh_medialorbitofro… rh_prec…   278     3.19e-8   1.38e- 5
 4   31689    63   253 lh_middletemporal_… rh_prec…   278     4.59e-8   8.13e- 5
 5   31843   217   253 rh_medialorbitofro… rh_prec…   278     5.08e-8   5.23e- 3
 6   31358   233   251 rh_parstriangulari… rh_prec…   278     9.43e-8   2.00e-13
 7   31628     2   253 lh_bankssts_part2   rh_prec…   278     9.71e-8   2.07e- 5
 8   31656    30   253 lh_inferiortempora… rh_prec…   278     9.82e-8   6.45e- 2
 9   38766   263   279 rh_rostralanterior… rh_supe…   278     7.34e-8   5.97e- 5
10   31687    61   253 lh_middletemporal_… rh_prec…   278     2.60e-7   6.99e- 3
# ℹ 1,317 more rows
# ℹ 13 more variables: p_Interaction <dbl>, p_Diagnosis_FDR <dbl>,
#   p_AgeGroup_FDR <dbl>, p_Interaction_FDR <dbl>, eta2_Diagnosis <dbl>,
#   eta2_AgeGroup <dbl>, eta2_Interaction <dbl>, cohens_f_Diagnosis <dbl>,
#   cohens_f_AgeGroup <dbl>, cohens_f_Interaction <dbl>, mean_TD <dbl>,
#   mean_DD <dbl>, direction <chr>
Significant AgeGroup degree results (n = 173 ): /data/home/tqi/data1/share/after_freesurfer/FILE/MIND_ANOVA/Significant_AgeGroup_DK318_degree_results.csv 
# A tibble: 173 × 18
   feature                n p_Diagnosis p_AgeGroup p_Interaction p_Diagnosis_FDR
   <chr>              <int>       <dbl>      <dbl>         <dbl>           <dbl>
 1 rh_superiorfronta…   278   0.0353      1.35e-13        0.104          0.103  
 2 rh_precentral_par…   278   0.0000177   7.36e-11        0.387          0.00188
 3 lh_precentral_par…   278   0.357       2.38e- 8        0.0463         0.469  
 4 rh_lateralorbitof…   278   0.0573      2.69e- 8        0.288          0.136  
 5 lh_superiorfronta…   278   0.324       9.66e- 8        0.175          0.437  
 6 lh_supramarginal_…   278   0.00411     8.23e- 8        0.412          0.0327 
 7 rh_inferiorpariet…   278   0.0392      1.36e- 7        0.948          0.108  
 8 lh_lateraloccipit…   278   0.883       2.54e- 7        0.405          0.909  
 9 lh_precentral_par…   278   0.0862      2.25e- 7        0.101          0.183  
10 lh_superiorfronta…   278   0.110       2.37e- 7        0.846          0.204  
# ℹ 163 more rows
# ℹ 12 more variables: p_AgeGroup_FDR <dbl>, p_Interaction_FDR <dbl>,
#   p_Interaction_FDR_diagSig <dbl>, eta2_Diagnosis <dbl>, eta2_AgeGroup <dbl>,
#   eta2_Interaction <dbl>, cohens_f_Diagnosis <dbl>, cohens_f_AgeGroup <dbl>,
#   cohens_f_Interaction <dbl>, mean_Child <dbl>, mean_Adult <dbl>,
#   direction <chr>
Significant AgeGroup edge results (n = 11159 ): /data/home/tqi/data1/share/after_freesurfer/FILE/MIND_ANOVA/Significant_AgeGroup_DK318_edge_results.csv 
# A tibble: 11,159 × 21
   edge_id     i     j region_i            region_j     n p_Diagnosis p_AgeGroup
     <int> <int> <int> <chr>               <chr>    <int>       <dbl>      <dbl>
 1   31357   232   251 rh_parstriangulari… rh_prec…   278     1.27e-5   1.16e-16
 2   31198    73   251 lh_parstriangulari… rh_prec…   278     9.15e-5   3.26e-15
 3   31243   118   251 lh_superiorfrontal… rh_prec…   278     2.50e-3   8.21e-15
 4    3990    74    90 lh_parstriangulari… lh_prec…   278     9.38e-3   3.13e-14
 5   30702    74   249 lh_parstriangulari… rh_prec…   278     2.10e-5   3.07e-14
 6   30861   233   249 rh_parstriangulari… rh_prec…   278     8.43e-6   9.91e-14
 7   31358   233   251 rh_parstriangulari… rh_prec…   278     9.43e-8   2.00e-13
 8   31171    46   251 lh_lateralorbitofr… rh_prec…   278     1.91e-3   2.58e-13
 9   31199    74   251 lh_parstriangulari… rh_prec…   278     3.00e-6   3.97e-13
10    9664    73   140 lh_parstriangulari… lh_supe…   278     1.23e-1   5.73e-13
# ℹ 11,149 more rows
# ℹ 13 more variables: p_Interaction <dbl>, p_Diagnosis_FDR <dbl>,
#   p_AgeGroup_FDR <dbl>, p_Interaction_FDR <dbl>, eta2_Diagnosis <dbl>,
#   eta2_AgeGroup <dbl>, eta2_Interaction <dbl>, cohens_f_Diagnosis <dbl>,
#   cohens_f_AgeGroup <dbl>, cohens_f_Interaction <dbl>, mean_Child <dbl>,
#   mean_Adult <dbl>, direction <chr>
…
