…
Significant Interactions (Edge, FDR<0.05): 994 
No significant Diagnosis results for degree (FDR<0.05)
NULL
No significant Diagnosis results for edge (FDR<0.05)
NULL
Significant Age degree results (n = 68 ): /data1/tqi/share/after_freesurfer/FILE/test_mean_1.5/MIND_GAM_DK318/Significant_Age_GAM_DK318_degree_results.csv 
# A tibble: 68 × 11
   feature        n     R2 p_Diag   p_Age   p_Int p_Diag_FDR p_Age_FDR p_Int_FDR
   <chr>      <dbl>  <dbl>  <dbl>   <dbl>   <dbl>      <dbl>     <dbl>     <dbl>
 1 lh_bankss…   209 0.117     NaN 3.31e-3 0.00752        NaN   0.0224     0.0484
 2 lh_fusifo…   209 0.0584    NaN 1.98e-3 0.174          NaN   0.0187     0.276 
 3 lh_fusifo…   209 0.148     NaN 1.33e-4 0.00881        NaN   0.00529    0.0500
 4 lh_fusifo…   209 0.104     NaN 8.16e-3 0.00834        NaN   0.0412     0.0491
 5 lh_inferi…   209 0.143     NaN 3.47e-4 0.362          NaN   0.00848    0.459 
 6 lh_inferi…   209 0.120     NaN 5.01e-4 0.158          NaN   0.00966    0.263 
 7 lh_inferi…   209 0.0944    NaN 7.51e-4 0.520          NaN   0.0126     0.601 
 8 lh_inferi…   209 0.0849    NaN 7.59e-3 0.0936         NaN   0.0396     0.180 
 9 lh_inferi…   209 0.0654    NaN 4.94e-3 0.165          NaN   0.0296     0.269 
10 lh_inferi…   209 0.108     NaN 4.09e-3 0.354          NaN   0.0266     0.454 
# ℹ 58 more rows
# ℹ 2 more variables: age_cor <dbl>, direction <chr>
Significant Age edge results (n = 3121 ): /data1/tqi/share/after_freesurfer/FILE/test_mean_1.5/MIND_GAM_DK318/Significant_Age_GAM_DK318_edge_results.csv 
# A tibble: 3,121 × 13
   edge_idx roi_1 roi_2     n     R2 p_Diag   p_Age   p_Int p_Diag_FDR p_Age_FDR
      <int> <chr> <chr> <dbl>  <dbl>  <dbl>   <dbl>   <dbl>      <dbl>     <dbl>
 1       16 lh_b… lh_c…   209 0.143     NaN 1.36e-3 7.81e-3        NaN   0.0316 
 2       74 lh_c… lh_f…   209 0.136     NaN 1.17e-5 8.22e-3        NaN   0.00182
 3       86 lh_c… lh_f…   209 0.0810    NaN 1.08e-3 2.56e-2        NaN   0.0279 
 4      156 lh_c… lh_i…   209 0.0553    NaN 1.07e-3 7.86e-1        NaN   0.0278 
 5      170 lh_f… lh_i…   209 0.0504    NaN 2.01e-3 2.04e-1        NaN   0.0389 
 6      290 lh_f… lh_i…   209 0.0278    NaN 2.28e-3 8.70e-2        NaN   0.0417 
 7      333 lh_c… lh_i…   209 0.105     NaN 1.41e-3 9.13e-4        NaN   0.0322 
 8      484 lh_i… lh_i…   209 0.0424    NaN 6.43e-4 2.74e-1        NaN   0.0208 
 9      528 lh_i… lh_i…   209 0.103     NaN 2.86e-3 1.48e-2        NaN   0.0476 
10      542 lh_f… lh_i…   209 0.0980    NaN 1.59e-3 6.27e-1        NaN   0.0342 
# ℹ 3,111 more rows
# ℹ 3 more variables: p_Int_FDR <dbl>, age_cor <dbl>, direction <chr>
…
