…
 2 lh_banksst…   278 0.0599 1.86e-3 2.89e-2 0.137   0.0489     0.0590      0.742
 3 lh_lateral…   278 0.0859 1.76e-3 4.05e-4 0.300   0.0489     0.00300     0.866
 4 lh_medialo…   278 0.0971 1.13e-4 1.63e-2 0.683   0.0180     0.0386      0.946
 5 lh_medialo…   278 0.0999 7.65e-4 5.79e-3 0.739   0.0378     0.0182      0.946
 6 lh_parahip…   278 0.0843 2.00e-3 5.91e-3 0.884   0.0489     0.0182      0.951
 7 lh_precune…   278 0.0847 7.46e-4 4.29e-3 0.808   0.0378     0.0148      0.946
 8 lh_superio…   278 0.123  1.20e-3 3.56e-4 0.799   0.0423     0.00283     0.946
 9 lh_superio…   278 0.141  2.75e-6 8.50e-2 0.783   0.000875   0.130       0.946
10 rh_middlet…   278 0.0652 9.50e-4 1.41e-3 0.133   0.0378     0.00778     0.742
11 rh_parsorb…   278 0.0756 1.71e-3 5.74e-4 0.373   0.0489     0.00388     0.869
12 rh_parstri…   278 0.0567 8.86e-4 7.44e-3 0.385   0.0378     0.0217      0.869
13 rh_suprama…   278 0.0704 3.51e-4 1.13e-1 0.431   0.0373     0.162       0.889
# ℹ 3 more variables: mean_TD <dbl>, mean_DD <dbl>, direction <chr>
Significant Diagnosis edge results (n = 175 ): /data1/tqi/share/after_freesurfer/FILE/MIND_GAM/Significant_Diagnosis_GAM_DK318_edge_results.csv 
# A tibble: 175 × 14
   edge_idx roi_1  roi_2     n     R2  p_Diag   p_Age p_Int p_Diag_FDR p_Age_FDR
      <int> <chr>  <chr> <dbl>  <dbl>   <dbl>   <dbl> <dbl>      <dbl>     <dbl>
 1     1499 lh_fu… lh_m…   278 0.0881 9.67e-5 7.06e-2 0.747    0.0405   0.216   
 2     2175 lh_in… lh_p…   278 0.0565 3.08e-5 1.21e-1 0.149    0.0218   0.294   
 3     2935 lh_cu… lh_p…   278 0.0997 8.01e-5 1.09e-3 0.237    0.0381   0.0163  
 4     3368 lh_la… lh_p…   278 0.166  1.12e-4 1.00e-6 0.388    0.0431   0.000148
 5     3394 lh_pa… lh_p…   278 0.107  9.73e-5 1.55e-3 0.311    0.0405   0.0204  
 6     4249 lh_mi… lh_p…   278 0.0809 6.01e-5 1.75e-2 0.999    0.0325   0.0926  
 7     4273 lh_po… lh_p…   278 0.0969 1.27e-4 8.01e-4 0.377    0.0446   0.0133  
 8     5261 lh_cu… lh_r…   278 0.0819 1.25e-4 2.00e-1 0.932    0.0446   0.396   
 9     5346 lh_pr… lh_r…   278 0.119  6.43e-6 1.56e-3 0.922    0.00971  0.0204  
10     7547 lh_la… lh_s…   278 0.152  9.45e-5 3.38e-4 0.518    0.0403   0.00769 
# ℹ 165 more rows
# ℹ 4 more variables: p_Int_FDR <dbl>, mean_TD <dbl>, mean_DD <dbl>,
#   direction <chr>
Significant Age degree results (n = 147 ): /data1/tqi/share/after_freesurfer/FILE/MIND_GAM/Significant_Age_GAM_DK318_degree_results.csv 
# A tibble: 147 × 11
   feature         n     R2  p_Diag   p_Age p_Int p_Diag_FDR p_Age_FDR p_Int_FDR
   <chr>       <dbl>  <dbl>   <dbl>   <dbl> <dbl>      <dbl>     <dbl>     <dbl>
 1 lh_banksst…   278 0.111  5.29e-4 2.25e-3 0.113     0.0378 0.0105        0.742
 2 lh_caudala…   278 0.0356 3.35e-1 5.86e-3 0.875     0.634  0.0182        0.946
 3 lh_caudalm…   278 0.0442 9.14e-1 2.26e-2 0.693     0.973  0.0489        0.946
 4 lh_fusifor…   278 0.0500 4.30e-1 1.04e-4 0.125     0.716  0.00144       0.742
 5 lh_fusifor…   278 0.0592 1.79e-1 1.20e-2 0.352     0.458  0.0307        0.869
 6 lh_fusifor…   278 0.135  2.73e-2 1.25e-6 0.139     0.170  0.0000663     0.742
 7 lh_fusifor…   278 0.101  9.53e-1 2.70e-4 0.175     0.989  0.00246       0.782
 8 lh_inferio…   278 0.0758 4.48e-2 2.26e-2 0.647     0.226  0.0489        0.946
 9 lh_inferio…   278 0.104  3.93e-1 4.16e-5 0.401     0.690  0.000883      0.869
10 lh_inferio…   278 0.0423 9.98e-2 1.19e-2 0.867     0.344  0.0307        0.946
# ℹ 137 more rows
# ℹ 2 more variables: age_cor <dbl>, direction <chr>
Significant Age edge results (n = 6372 ): /data1/tqi/share/after_freesurfer/FILE/MIND_GAM/Significant_Age_GAM_DK318_edge_results.csv 
# A tibble: 6,372 × 13
   edge_idx roi_1          roi_2     n     R2  p_Diag   p_Age   p_Int p_Diag_FDR
      <int> <chr>          <chr> <dbl>  <dbl>   <dbl>   <dbl>   <dbl>      <dbl>
 1       16 lh_bankssts_p… lh_c…   278 0.119  0.339   7.53e-4 2.30e-3      0.800
 2       36 lh_cuneus_par… lh_c…   278 0.0823 0.00166 2.68e-3 3.07e-2      0.131
 3       53 lh_cuneus_par… lh_e…   278 0.0825 0.799   2.46e-3 2.60e-2      0.956
 4       55 lh_cuneus_par… lh_e…   278 0.0668 0.0584  4.55e-3 9.43e-2      0.498
 5       74 lh_cuneus_par… lh_f…   278 0.132  0.00223 3.92e-7 1.62e-4      0.151
 6       76 lh_cuneus_par… lh_f…   278 0.0643 0.137   3.68e-4 1.77e-2      0.650
 7       86 lh_cuneus_par… lh_f…   278 0.0659 0.0678  6.74e-5 2.03e-2      0.525
 8       89 lh_entorhinal… lh_f…   278 0.0797 0.167   3.49e-3 3.97e-2      0.683
 9       90 lh_fusiform_p… lh_f…   278 0.0265 0.696   5.14e-3 6.89e-1      0.927
10      123 lh_caudalante… lh_f…   278 0.0285 0.644   5.17e-3 3.01e-1      0.910
# ℹ 6,362 more rows
# ℹ 4 more variables: p_Age_FDR <dbl>, p_Int_FDR <dbl>, age_cor <dbl>,
#   direction <chr>
…
