…
=== Generating significant results tables ===
Significant Diagnosis degree results (n = 80 ): /data/home/tqi/data1/share/after_freesurfer/FILE/MIND_ANOVA_with_site/Significant_Diagnosis_DK318_degree_results.csv 
# A tibble: 80 × 17
   feature                n p_Diagnosis p_AgeGroup p_Interaction p_Diagnosis_FDR
   <chr>              <int>       <dbl>      <dbl>         <dbl>           <dbl>
 1 rh_precentral_par…   307 0.000000291   8.67e- 6        0.0756       0.0000927
 2 rh_inferiorpariet…   307 0.00000557    2.42e- 1        0.956        0.000617 
 3 rh_precentral_par…   307 0.00000582    1.96e-10        0.410        0.000617 
 4 lh_superiortempor…   307 0.00000913    1.93e- 1        0.714        0.000725 
 5 rh_supramarginal_…   307 0.0000488     9.43e- 2        0.840        0.00310  
 6 lh_medialorbitofr…   307 0.0000706     7.90e- 4        0.888        0.00374  
 7 rh_entorhinal_par…   307 0.000109      4.23e- 1        0.117        0.00473  
 8 rh_supramarginal_…   307 0.000119      3.82e- 3        0.810        0.00473  
 9 lh_bankssts_part1    307 0.000237      6.65e- 3        0.0799       0.00701  
10 lh_lateralorbitof…   307 0.000242      1.20e- 1        0.108        0.00701  
# ℹ 70 more rows
# ℹ 11 more variables: p_AgeGroup_FDR <dbl>, p_Interaction_FDR <dbl>,
#   eta2_Diagnosis <dbl>, eta2_AgeGroup <dbl>, eta2_Interaction <dbl>,
#   cohens_f_Diagnosis <dbl>, cohens_f_AgeGroup <dbl>,
#   cohens_f_Interaction <dbl>, mean_TD <dbl>, mean_DD <dbl>, direction <chr>
Significant Diagnosis edge results (n = 1417 ): /data/home/tqi/data1/share/after_freesurfer/FILE/MIND_ANOVA_with_site/Significant_Diagnosis_DK318_edge_results.csv 
# A tibble: 1,417 × 19
   edge_id     i     j     n   p_Diagnosis p_AgeGroup p_Interaction
     <int> <int> <int> <int>         <dbl>      <dbl>         <dbl>
 1   31655    29   253   307 0.00000000520 0.0343            0.344 
 2   31684    58   253   307 0.0000000302  0.0000230         0.136 
 3   31673    47   253   307 0.0000000883  0.00000158        0.333 
 4   31628     2   253   307 0.000000279   0.000266          0.515 
 5   31656    30   253   307 0.000000148   0.120             0.0212
 6   31843   217   253   307 0.000000310   0.00632           0.212 
 7   31850   224   253   307 0.000000310   0.0816            0.872 
 8   46501   141   306   307 0.000000281   0.971             0.606 
 9   46613   253   306   307 0.000000204   0.0000191         0.250 
10   49859    89   317   307 0.000000217   0.770             0.169 
# ℹ 1,407 more rows
# ℹ 12 more variables: p_Diagnosis_FDR <dbl>, p_AgeGroup_FDR <dbl>,
#   p_Interaction_FDR <dbl>, eta2_Diagnosis <dbl>, eta2_AgeGroup <dbl>,
#   eta2_Interaction <dbl>, cohens_f_Diagnosis <dbl>, cohens_f_AgeGroup <dbl>,
#   cohens_f_Interaction <dbl>, mean_TD <dbl>, mean_DD <dbl>, direction <chr>
Significant AgeGroup degree results (n = 167 ): /data/home/tqi/data1/share/after_freesurfer/FILE/MIND_ANOVA_with_site/Significant_AgeGroup_DK318_degree_results.csv 
# A tibble: 167 × 17
   feature                n p_Diagnosis p_AgeGroup p_Interaction p_Diagnosis_FDR
   <chr>              <int>       <dbl>      <dbl>         <dbl>           <dbl>
 1 rh_superiorfronta…   307  0.0202       2.16e-14        0.0660        0.0657  
 2 rh_precentral_par…   307  0.00000582   1.96e-10        0.410         0.000617
 3 rh_lateralorbitof…   307  0.0274       1.77e- 9        0.204         0.0792  
 4 lh_precentral_par…   307  0.113        3.15e- 9        0.0947        0.195   
 5 rh_lateralorbitof…   307  0.0447       3.92e- 9        0.663         0.107   
 6 lh_precentral_par…   307  0.317        1.11e- 8        0.0284        0.410   
 7 lh_superiorfronta…   307  0.197        2.47e- 8        0.127         0.290   
 8 rh_precentral_par…   307  0.00129      4.41e- 8        0.0883        0.0169  
 9 lh_lateralorbitof…   307  0.00857      1.44e- 7        0.939         0.0399  
10 lh_rostralmiddlef…   307  0.00805      1.78e- 7        0.458         0.0399  
# ℹ 157 more rows
# ℹ 11 more variables: p_AgeGroup_FDR <dbl>, p_Interaction_FDR <dbl>,
#   eta2_Diagnosis <dbl>, eta2_AgeGroup <dbl>, eta2_Interaction <dbl>,
#   cohens_f_Diagnosis <dbl>, cohens_f_AgeGroup <dbl>,
#   cohens_f_Interaction <dbl>, mean_Child <dbl>, mean_Adult <dbl>,
#   direction <chr>
Significant AgeGroup edge results (n = 10120 ): /data/home/tqi/data1/share/after_freesurfer/FILE/MIND_ANOVA_with_site/Significant_AgeGroup_DK318_edge_results.csv 
# A tibble: 10,120 × 19
   edge_id     i     j     n p_Diagnosis p_AgeGroup p_Interaction
     <int> <int> <int> <int>       <dbl>      <dbl>         <dbl>
 1    3990    74    90   307  0.00584      2.36e-15      0.178   
 2   30861   233   249   307  0.00000321   2.02e-15      0.421   
 3   31357   232   251   307  0.0000641    1.92e-15      0.770   
 4   30702    74   249   307  0.00000231   5.44e-15      0.0335  
 5   39030   249   280   307  0.00424      9.60e-15      0.00259 
 6   38871    90   280   307  0.290        1.44e-14      0.000696
 7   26886    90   233   307  0.0191       2.50e-14      0.670   
 8   31198    73   251   307  0.0000391    2.88e-14      0.837   
 9   30851   223   249   307  0.0000641    3.49e-14      0.0486  
10   34281    90   263   307  0.0887       4.70e-14      0.0938  
# ℹ 10,110 more rows
# ℹ 12 more variables: p_Diagnosis_FDR <dbl>, p_AgeGroup_FDR <dbl>,
#   p_Interaction_FDR <dbl>, eta2_Diagnosis <dbl>, eta2_AgeGroup <dbl>,
#   eta2_Interaction <dbl>, cohens_f_Diagnosis <dbl>, cohens_f_AgeGroup <dbl>,
#   cohens_f_Interaction <dbl>, mean_Child <dbl>, mean_Adult <dbl>,
#   direction <chr>
…
