…
=== Generating significant results tables ===
Significant Diagnosis degree results (n = 94 ): /data/home/tqi/data1/share/after_freesurfer/FILE/MIND_ANOVA_with_site/Significant_Diagnosis_DK318_degree_results.csv 
# A tibble: 94 × 17
   feature                n p_Diagnosis p_AgeGroup p_Interaction p_Diagnosis_FDR
   <chr>              <int>       <dbl>      <dbl>         <dbl>           <dbl>
 1 rh_precentral_par…   297     8.88e-8   5.09e- 6        0.0439       0.0000282
 2 rh_precentral_par…   297     3.34e-6   9.23e-11        0.342        0.000531 
 3 rh_inferiorpariet…   297     8.58e-6   2.06e- 1        0.988        0.000909 
 4 lh_superiortempor…   297     1.84e-5   1.49e- 1        0.722        0.00144  
 5 rh_supramarginal_…   297     2.26e-5   7.24e- 2        0.689        0.00144  
 6 lh_medialorbitofr…   297     5.33e-5   6.02e- 4        0.808        0.00283  
 7 rh_supramarginal_…   297     8.21e-5   3.08e- 3        0.741        0.00373  
 8 rh_entorhinal_par…   297     1.09e-4   4.01e- 1        0.126        0.00434  
 9 lh_precuneus_part7   297     1.63e-4   9.92e- 4        0.872        0.00577  
10 rh_insula_part3      297     2.15e-4   7.42e- 3        0.107        0.00684  
# ℹ 84 more rows
# ℹ 11 more variables: p_AgeGroup_FDR <dbl>, p_Interaction_FDR <dbl>,
#   eta2_Diagnosis <dbl>, eta2_AgeGroup <dbl>, eta2_Interaction <dbl>,
#   cohens_f_Diagnosis <dbl>, cohens_f_AgeGroup <dbl>,
#   cohens_f_Interaction <dbl>, mean_TD <dbl>, mean_DD <dbl>, direction <chr>
Significant Diagnosis edge results (n = 1437 ): /data/home/tqi/data1/share/after_freesurfer/FILE/MIND_ANOVA_with_site/Significant_Diagnosis_DK318_edge_results.csv 
# A tibble: 1,437 × 19
   edge_id     i     j     n p_Diagnosis p_AgeGroup p_Interaction
     <int> <int> <int> <int>       <dbl>      <dbl>         <dbl>
 1   31655    29   253   297    4.96e-10 0.0379           0.181  
 2   31656    30   253   297    2.16e- 8 0.140            0.00591
 3   31628     2   253   297    6.50e- 8 0.000295         0.308  
 4   31673    47   253   297    4.55e- 8 0.00000500       0.210  
 5   31850   224   253   297    6.63e- 8 0.0786           0.626  
 6   46613   253   306   297    6.38e- 8 0.0000102        0.171  
 7   31285   160   251   297    1.01e- 7 0.000312         0.310  
 8   31684    58   253   297    1.03e- 7 0.0000212        0.170  
 9   38766   263   279   297    1.23e- 7 0.0000975        0.297  
10   49859    89   317   297    1.36e- 7 0.738            0.120  
# ℹ 1,427 more rows
# ℹ 12 more variables: p_Diagnosis_FDR <dbl>, p_AgeGroup_FDR <dbl>,
#   p_Interaction_FDR <dbl>, eta2_Diagnosis <dbl>, eta2_AgeGroup <dbl>,
#   eta2_Interaction <dbl>, cohens_f_Diagnosis <dbl>, cohens_f_AgeGroup <dbl>,
#   cohens_f_Interaction <dbl>, mean_TD <dbl>, mean_DD <dbl>, direction <chr>
Significant AgeGroup degree results (n = 167 ): /data/home/tqi/data1/share/after_freesurfer/FILE/MIND_ANOVA_with_site/Significant_AgeGroup_DK318_degree_results.csv 
# A tibble: 167 × 17
   feature                n p_Diagnosis p_AgeGroup p_Interaction p_Diagnosis_FDR
   <chr>              <int>       <dbl>      <dbl>         <dbl>           <dbl>
 1 rh_superiorfronta…   297  0.00669      6.73e-14        0.151         0.0305  
 2 rh_precentral_par…   297  0.00000334   9.23e-11        0.342         0.000531
 3 rh_lateralorbitof…   297  0.0486       1.84e- 9        0.152         0.102   
 4 lh_precentral_par…   297  0.0805       3.96e- 9        0.123         0.145   
 5 rh_lateralorbitof…   297  0.0334       4.77e- 9        0.787         0.0818  
 6 lh_precentral_par…   297  0.206        1.24e- 8        0.0486        0.279   
 7 lh_superiorfronta…   297  0.0585       3.55e- 8        0.323         0.113   
 8 lh_rostralmiddlef…   297  0.0173       1.46e- 7        0.356         0.0538  
 9 lh_supramarginal_…   297  0.00403      1.59e- 7        0.312         0.0237  
10 rh_precentral_par…   297  0.000593     1.59e- 7        0.170         0.0126  
# ℹ 157 more rows
# ℹ 11 more variables: p_AgeGroup_FDR <dbl>, p_Interaction_FDR <dbl>,
#   eta2_Diagnosis <dbl>, eta2_AgeGroup <dbl>, eta2_Interaction <dbl>,
#   cohens_f_Diagnosis <dbl>, cohens_f_AgeGroup <dbl>,
#   cohens_f_Interaction <dbl>, mean_Child <dbl>, mean_Adult <dbl>,
#   direction <chr>
Significant AgeGroup edge results (n = 10264 ): /data/home/tqi/data1/share/after_freesurfer/FILE/MIND_ANOVA_with_site/Significant_AgeGroup_DK318_edge_results.csv 
# A tibble: 10,264 × 19
   edge_id     i     j     n p_Diagnosis p_AgeGroup p_Interaction
     <int> <int> <int> <int>       <dbl>      <dbl>         <dbl>
 1    3990    74    90   297  0.00555      1.61e-15       0.171  
 2   31357   232   251   297  0.000105     3.48e-15       0.753  
 3   26886    90   233   297  0.0255       2.08e-14       0.717  
 4   30861   233   249   297  0.00000245   1.25e-14       0.552  
 5   31198    73   251   297  0.0000378    1.67e-14       0.810  
 6   38871    90   280   297  0.185        2.20e-14       0.00144
 7   30702    74   249   297  0.00000197   5.81e-14       0.0545 
 8   39030   249   280   297  0.00362      5.62e-14       0.00464
 9    3972    56    90   297  0.0429       8.01e-14       0.325  
10   34281    90   263   297  0.0417       9.72e-14       0.171  
# ℹ 10,254 more rows
# ℹ 12 more variables: p_Diagnosis_FDR <dbl>, p_AgeGroup_FDR <dbl>,
#   p_Interaction_FDR <dbl>, eta2_Diagnosis <dbl>, eta2_AgeGroup <dbl>,
#   eta2_Interaction <dbl>, cohens_f_Diagnosis <dbl>, cohens_f_AgeGroup <dbl>,
#   cohens_f_Interaction <dbl>, mean_Child <dbl>, mean_Adult <dbl>,
#   direction <chr>
…
