…
=== Generating significant results tables ===
Significant Diagnosis degree results (n = 89 ): /data/home/tqi/data1/share/after_freesurfer/FILE/MIND_ANOVA/Significant_Diagnosis_DK318_degree_results.csv 
# A tibble: 89 × 17
   feature                n p_Diagnosis p_AgeGroup p_Interaction p_Diagnosis_FDR
   <chr>              <int>       <dbl>      <dbl>         <dbl>           <dbl>
 1 rh_precentral_par…   307     8.06e-8   6.08e- 7        0.0523       0.0000256
 2 rh_inferiorpariet…   307     3.54e-6   1.62e- 1        0.918        0.000421 
 3 rh_precentral_par…   307     3.97e-6   6.71e-13        0.372        0.000421 
 4 lh_superiortempor…   307     1.06e-5   7.43e- 2        0.687        0.000842 
 5 lh_medialorbitofr…   307     3.86e-5   3.27e- 4        0.875        0.00245  
 6 rh_supramarginal_…   307     7.90e-5   9.83e- 3        0.821        0.00419  
 7 rh_supramarginal_…   307     1.43e-4   3.04e- 4        0.773        0.00649  
 8 lh_bankssts_part1    307     2.16e-4   1.98e- 3        0.0852       0.00706  
 9 lh_lateralorbitof…   307     2.66e-4   2.48e- 2        0.114        0.00706  
10 lh_precuneus_part7   307     2.46e-4   2.18e- 4        0.906        0.00706  
# ℹ 79 more rows
# ℹ 11 more variables: p_AgeGroup_FDR <dbl>, p_Interaction_FDR <dbl>,
#   eta2_Diagnosis <dbl>, eta2_AgeGroup <dbl>, eta2_Interaction <dbl>,
#   cohens_f_Diagnosis <dbl>, cohens_f_AgeGroup <dbl>,
#   cohens_f_Interaction <dbl>, mean_TD <dbl>, mean_DD <dbl>, direction <chr>
Significant Diagnosis edge results (n = 1974 ): /data/home/tqi/data1/share/after_freesurfer/FILE/MIND_ANOVA/Significant_Diagnosis_DK318_edge_results.csv 
# A tibble: 1,974 × 19
   edge_id     i     j     n p_Diagnosis p_AgeGroup p_Interaction
     <int> <int> <int> <int>       <dbl>      <dbl>         <dbl>
 1   31655    29   253   307    7.16e-10   1.59e- 2      0.288   
 2   31684    58   253   307    6.95e- 9   4.74e- 6      0.121   
 3   31673    47   253   307    1.83e- 8   3.09e- 7      0.303   
 4   31656    30   253   307    4.31e- 8   6.43e- 2      0.0144  
 5   38766   263   279   307    5.12e- 8   2.80e- 5      0.380   
 6   31843   217   253   307    6.23e- 8   4.08e- 3      0.175   
 7   30850   222   249   307    7.67e- 8   2.41e-12      0.000925
 8   31358   233   251   307    1.13e- 7   3.28e-15      0.363   
 9   31628     2   253   307    1.17e- 7   4.02e- 5      0.484   
10   31689    63   253   307    1.17e- 7   3.51e- 4      0.227   
# ℹ 1,964 more rows
# ℹ 12 more variables: p_Diagnosis_FDR <dbl>, p_AgeGroup_FDR <dbl>,
#   p_Interaction_FDR <dbl>, eta2_Diagnosis <dbl>, eta2_AgeGroup <dbl>,
#   eta2_Interaction <dbl>, cohens_f_Diagnosis <dbl>, cohens_f_AgeGroup <dbl>,
#   cohens_f_Interaction <dbl>, mean_TD <dbl>, mean_DD <dbl>, direction <chr>
Significant AgeGroup degree results (n = 193 ): /data/home/tqi/data1/share/after_freesurfer/FILE/MIND_ANOVA/Significant_AgeGroup_DK318_degree_results.csv 
# A tibble: 193 × 17
   feature                n p_Diagnosis p_AgeGroup p_Interaction p_Diagnosis_FDR
   <chr>              <int>       <dbl>      <dbl>         <dbl>           <dbl>
 1 rh_superiorfronta…   307  0.0127       1.57e-16        0.0652        0.0464  
 2 rh_precentral_par…   307  0.00000397   6.71e-13        0.372         0.000421
 3 rh_lateralorbitof…   307  0.0227       1.65e-10        0.216         0.0702  
 4 lh_precentral_par…   307  0.245        4.98e-10        0.0302        0.329   
 5 lh_superiorfronta…   307  0.184        5.24e-10        0.126         0.272   
 6 lh_precentral_par…   307  0.0511       1.89e- 9        0.0889        0.116   
 7 rh_lateralorbitof…   307  0.0243       1.88e- 9        0.718         0.0716  
 8 lh_rostralmiddlef…   307  0.00746      8.54e- 9        0.510         0.0329  
 9 rh_precentral_par…   307  0.000478     8.96e- 9        0.0775        0.00895 
10 lh_superiorfronta…   307  0.0895       1.17e- 8        0.876         0.162   
# ℹ 183 more rows
# ℹ 11 more variables: p_AgeGroup_FDR <dbl>, p_Interaction_FDR <dbl>,
#   eta2_Diagnosis <dbl>, eta2_AgeGroup <dbl>, eta2_Interaction <dbl>,
#   cohens_f_Diagnosis <dbl>, cohens_f_AgeGroup <dbl>,
#   cohens_f_Interaction <dbl>, mean_Child <dbl>, mean_Adult <dbl>,
#   direction <chr>
Significant AgeGroup edge results (n = 13293 ): /data/home/tqi/data1/share/after_freesurfer/FILE/MIND_ANOVA/Significant_AgeGroup_DK318_edge_results.csv 
# A tibble: 13,293 × 19
   edge_id     i     j     n p_Diagnosis p_AgeGroup p_Interaction
     <int> <int> <int> <int>       <dbl>      <dbl>         <dbl>
 1   30702    74   249   307 0.000000832   4.84e-18       0.0339 
 2   31357   232   251   307 0.0000226     4.59e-18       0.788  
 3    3990    74    90   307 0.00287       1.17e-17       0.185  
 4   31198    73   251   307 0.0000275     1.26e-17       0.791  
 5   30861   233   249   307 0.000000413   3.17e-17       0.424  
 6   31243   118   251   307 0.00116       1.46e-16       0.176  
 7   39030   249   280   307 0.00108       2.10e-16       0.00226
 8   37475    74   275   307 0.0381        3.91e-16       0.0257 
 9   30749   121   249   307 0.00000952    6.46e-16       0.00196
10   31199    74   251   307 0.000000692   9.81e-16       0.481  
# ℹ 13,283 more rows
# ℹ 12 more variables: p_Diagnosis_FDR <dbl>, p_AgeGroup_FDR <dbl>,
#   p_Interaction_FDR <dbl>, eta2_Diagnosis <dbl>, eta2_AgeGroup <dbl>,
#   eta2_Interaction <dbl>, cohens_f_Diagnosis <dbl>, cohens_f_AgeGroup <dbl>,
#   cohens_f_Interaction <dbl>, mean_Child <dbl>, mean_Adult <dbl>,
#   direction <chr>
…
