…
 4 lh_lateral…   289 0.0939 1.24e-3 2.84e-4 0.322    0.0358    0.00205     0.917
 5 lh_lateral…   289 0.0527 1.22e-3 7.30e-3 0.280    0.0358    0.0181      0.917
 6 lh_medialo…   289 0.0831 2.90e-4 8.54e-2 0.416    0.0315    0.126       0.940
 7 lh_medialo…   289 0.104  5.22e-4 4.79e-3 0.807    0.0358    0.0136      0.964
 8 lh_parahip…   289 0.0954 1.04e-3 3.00e-3 0.767    0.0358    0.0101      0.964
 9 lh_precune…   289 0.0872 8.33e-4 3.41e-3 0.702    0.0358    0.0110      0.964
10 lh_superio…   289 0.124  7.21e-4 2.99e-4 0.834    0.0358    0.00212     0.964
11 lh_superio…   289 0.139  3.39e-6 7.32e-2 0.709    0.00108   0.112       0.964
12 rh_middlet…   289 0.0630 1.00e-3 2.29e-3 0.206    0.0358    0.00829     0.917
13 rh_parsorb…   289 0.0735 1.78e-3 1.07e-3 0.575    0.0378    0.00486     0.964
14 rh_parstri…   289 0.0506 1.55e-3 1.65e-2 0.634    0.0362    0.0346      0.964
15 rh_suprama…   289 0.0768 2.97e-4 8.10e-2 0.379    0.0315    0.122       0.938
# ℹ 3 more variables: mean_TD <dbl>, mean_DD <dbl>, direction <chr>
Significant Diagnosis edge results (n = 120 ): /data1/tqi/share/after_freesurfer/FILE/MIND_GAM/Significant_Diagnosis_GAM_DK318_edge_results.csv 
# A tibble: 120 × 14
   edge_idx roi_1 roi_2     n     R2  p_Diag   p_Age  p_Int p_Diag_FDR p_Age_FDR
      <int> <chr> <chr> <dbl>  <dbl>   <dbl>   <dbl>  <dbl>      <dbl>     <dbl>
 1     2175 lh_i… lh_p…   289 0.0575 2.49e-5 3.24e-1 0.191      0.0216   0.513  
 2     2935 lh_c… lh_p…   289 0.0990 5.00e-5 1.66e-3 0.258      0.0339   0.0189 
 3     4249 lh_m… lh_p…   289 0.0788 6.50e-5 2.30e-2 0.847      0.0384   0.103  
 4     5261 lh_c… lh_r…   289 0.0813 1.01e-4 2.15e-1 0.790      0.0472   0.401  
 5     5346 lh_p… lh_r…   289 0.119  1.69e-5 2.34e-3 0.653      0.0167   0.0239 
 6     7547 lh_l… lh_s…   289 0.153  1.11e-4 3.22e-4 0.508      0.0484   0.00632
 7     7674 lh_l… lh_s…   289 0.108  8.17e-6 7.37e-2 0.508      0.0126   0.211  
 8     8724 lh_p… lh_s…   289 0.0894 9.24e-5 5.06e-3 0.218      0.0446   0.0396 
 9     9734 lh_c… lh_s…   289 0.0691 1.08e-4 1.91e-1 0.0642     0.0484   0.374  
10     9843 lh_r… lh_s…   289 0.128  1.34e-5 1.87e-1 0.369      0.0150   0.370  
# ℹ 110 more rows
# ℹ 4 more variables: p_Int_FDR <dbl>, mean_TD <dbl>, mean_DD <dbl>,
#   direction <chr>
Significant Age degree results (n = 166 ): /data1/tqi/share/after_freesurfer/FILE/MIND_GAM/Significant_Age_GAM_DK318_degree_results.csv 
# A tibble: 166 × 11
   feature        n     R2  p_Diag   p_Age  p_Int p_Diag_FDR p_Age_FDR p_Int_FDR
   <chr>      <dbl>  <dbl>   <dbl>   <dbl>  <dbl>      <dbl>     <dbl>     <dbl>
 1 lh_bankss…   289 0.109  5.85e-4 2.02e-3 0.161      0.0358 0.00795       0.844
 2 lh_caudal…   289 0.0508 2.41e-1 6.82e-4 0.690      0.556  0.00349       0.964
 3 lh_caudal…   289 0.0508 9.10e-1 1.09e-2 0.603      0.975  0.0249        0.964
 4 lh_entorh…   289 0.0647 9.38e-1 2.04e-2 0.0459     0.988  0.0411        0.601
 5 lh_fusifo…   289 0.0579 4.65e-1 3.05e-5 0.154      0.783  0.000404      0.836
 6 lh_fusifo…   289 0.0574 1.82e-1 1.35e-2 0.402      0.456  0.0294        0.939
 7 lh_fusifo…   289 0.135  2.84e-2 6.00e-7 0.167      0.170  0.0000238     0.844
 8 lh_fusifo…   289 0.0998 8.73e-1 2.64e-3 0.547      0.964  0.00913       0.958
 9 lh_fusifo…   289 0.0849 1.16e-2 2.18e-2 0.545      0.0997 0.0434        0.958
10 lh_inferi…   289 0.0710 4.95e-2 6.78e-3 0.574      0.228  0.0170        0.964
# ℹ 156 more rows
# ℹ 2 more variables: age_cor <dbl>, direction <chr>
Significant Age edge results (n = 7385 ): /data1/tqi/share/after_freesurfer/FILE/MIND_GAM/Significant_Age_GAM_DK318_edge_results.csv 
# A tibble: 7,385 × 13
   edge_idx roi_1          roi_2     n     R2  p_Diag   p_Age   p_Int p_Diag_FDR
      <int> <chr>          <chr> <dbl>  <dbl>   <dbl>   <dbl>   <dbl>      <dbl>
 1        2 lh_bankssts_p… lh_c…   289 0.0427 0.100   2.46e-3 5.93e-1      0.607
 2        3 lh_bankssts_p… lh_c…   289 0.0478 0.0579  5.94e-3 2.74e-1      0.508
 3       16 lh_bankssts_p… lh_c…   289 0.141  0.217   1.83e-4 5.19e-3      0.739
 4       18 lh_caudalante… lh_c…   289 0.0688 0.274   7.37e-4 6.45e-1      0.780
 5       36 lh_cuneus_par… lh_c…   289 0.0785 0.120   3.92e-3 2.67e-1      0.640
 6       53 lh_cuneus_par… lh_e…   289 0.0891 0.896   4.31e-4 1.69e-2      0.977
 7       74 lh_cuneus_par… lh_f…   289 0.118  0.00222 3.00e-6 4.03e-4      0.157
 8       76 lh_cuneus_par… lh_f…   289 0.0612 0.122   3.94e-4 2.28e-2      0.642
 9       86 lh_cuneus_par… lh_f…   289 0.0613 0.0731  1.04e-4 3.69e-2      0.551
10       88 lh_cuneus_par… lh_f…   289 0.0259 0.685   2.82e-3 8.66e-2      0.925
# ℹ 7,375 more rows
# ℹ 4 more variables: p_Age_FDR <dbl>, p_Int_FDR <dbl>, age_cor <dbl>,
#   direction <chr>
…
