…
 6 rh_bankssts…    54     0.0178  0.343            0.944    0.947         0.107 
 7 lh_caudalmi…    54     0.0397  0.591            0.996    0.963         0.0819
 8 lh_cuneus_p…    54     0.0484  0.484            0.996    0.963         0.0757
 9 lh_fusiform…    54     0.0498  0.288            0.996    0.947         0.0748
10 lh_lateralo…    54     0.0446  0.788            0.996    0.963         0.0782
11 lh_pericalc…    54     0.0275  0.0462           0.996    0.866         0.0935
12 rh_caudalmi…    54     0.0297  0.277            0.996    0.947         0.0911
13 rh_entorhin…    54     0.0399  0.379            0.996    0.947         0.0817
14 rh_parahipp…    54     0.0224  0.0657           0.996    0.889         0.100 
15 rh_postcent…    54     0.0409  0.635            0.996    0.963         0.0810
# ℹ 8 more variables: eta2_IQ <dbl>, cohens_f_Diagnosis <dbl>,
#   cohens_f_IQ <dbl>, mean_TD <dbl>, mean_DD <dbl>, direction <chr>,
#   sig_raw <lgl>, sig_fdr <lgl>
Significant Diagnosis edge results (n = 3011 ): /data/home/tqi/data1/share/after_freesurfer/FILE/MIND_ANOVA_adult_with_IQ/Significant_Diagnosis_DK318_edge_results.csv 
# A tibble: 3,011 × 19
   edge_id     i     j region_i                region_j     n p_Diagnosis   p_IQ
     <int> <int> <int> <chr>                   <chr>    <int>       <dbl>  <dbl>
 1    7096    75   120 lh_pericalcarine_part1  lh_supe…    54   0.0000238 0.0350
 2   27846   116   237 lh_superiorfrontal_par… rh_post…    54   0.0000145 0.778 
 3   30649    21   249 lh_inferiorparietal_pa… rh_prec…    54   0.0000234 0.708 
 4   38226   276   277 rh_superiorfrontal_par… rh_supe…    54   0.0000255 0.735 
 5   41972    67   291 lh_paracentral_part2    rh_supe…    54   0.0000298 0.349 
 6   27850   120   237 lh_superiorfrontal_par… rh_post…    54   0.0000446 0.770 
 7    4022    17    91 lh_fusiform_part6       lh_prec…    54   0.0000967 0.650 
 8    7042    21   120 lh_inferiorparietal_pa… lh_supe…    54   0.000102  0.637 
 9   29040   120   242 lh_superiorfrontal_par… rh_post…    54   0.0000968 0.496 
10   32152    21   255 lh_inferiorparietal_pa… rh_prec…    54   0.000106  0.0734
# ℹ 3,001 more rows
# ℹ 11 more variables: p_Diagnosis_FDR <dbl>, p_IQ_FDR <dbl>,
#   eta2_Diagnosis <dbl>, eta2_IQ <dbl>, cohens_f_Diagnosis <dbl>,
#   cohens_f_IQ <dbl>, mean_TD <dbl>, mean_DD <dbl>, direction <chr>,
#   sig_raw <lgl>, sig_fdr <lgl>
…
 9 rh_superio…    54      0.858  0.0213            0.996    0.824       0.000647
10 rh_superio…    54      0.157  0.0211            0.996    0.824       0.0396  
11 rh_superio…    54      0.781  0.0233            0.996    0.824       0.00156 
12 lh_parsope…    54      0.807  0.0489            0.996    0.866       0.00121 
13 lh_perical…    54      0.0275 0.0462            0.996    0.866       0.0935  
14 lh_superio…    54      0.335  0.0366            0.996    0.866       0.0186  
15 rh_lingual…    54      0.657  0.0455            0.996    0.866       0.00397 
16 rh_rostral…    54      0.783  0.0405            0.996    0.866       0.00153 
17 rh_superio…    54      0.416  0.0483            0.996    0.866       0.0132  
18 rh_superio…    54      0.338  0.0490            0.996    0.866       0.0184  
# ℹ 7 more variables: eta2_IQ <dbl>, cohens_f_Diagnosis <dbl>,
#   cohens_f_IQ <dbl>, corr_IQ <dbl>, direction <chr>, sig_raw <lgl>,
#   sig_fdr <lgl>
Significant IQ edge results (n = 2195 ): /data/home/tqi/data1/share/after_freesurfer/FILE/MIND_ANOVA_adult_with_IQ/Significant_IQ_DK318_edge_results.csv 
# A tibble: 2,195 × 18
   edge_id     i     j region_i               region_j     n p_Diagnosis    p_IQ
     <int> <int> <int> <chr>                  <chr>    <int>       <dbl>   <dbl>
 1   40179   276   284 rh_superiorfrontal_pa… rh_supe…    54      0.486  9.32e-6
 2    9800    70   141 lh_parsopercularis_pa… lh_supe…    54      0.838  5.88e-5
 3   38641   138   279 lh_superiorparietal_p… rh_supe…    54      0.0131 4.41e-5
 4   39590   250   282 rh_precentral_part4    rh_supe…    54      0.139  3.11e-5
 5   19863   162   200 rh_caudalanteriorcing… rh_late…    54      0.0593 8.38e-5
 6   37585   184   275 rh_inferiorparietal_p… rh_supe…    54      0.223  1.27e-4
 7   46256   200   305 rh_lateraloccipital_p… rh_supr…    54      0.993  1.22e-4
 8   11796    15   155 lh_fusiform_part4      lh_tran…    54      0.0342 1.79e-4
 9   32655    15   257 lh_fusiform_part4      rh_prec…    54      0.0683 1.90e-4
10   38682   179   279 rh_inferiorparietal_p… rh_supe…    54      0.132  1.97e-4
# ℹ 2,185 more rows
# ℹ 10 more variables: p_Diagnosis_FDR <dbl>, p_IQ_FDR <dbl>,
#   eta2_Diagnosis <dbl>, eta2_IQ <dbl>, cohens_f_Diagnosis <dbl>,
#   cohens_f_IQ <dbl>, corr_IQ <dbl>, direction <chr>, sig_raw <lgl>,
#   sig_fdr <lgl>
…
