…
=== Running Edge-wise ANOVA (upper triangle) ===
Edge chunk 1 / 3 - edges: 1000 
Edge chunk 2 / 3 - edges: 1000 
Edge chunk 3 / 3 - edges: 278 
Edge features with NA p-values (likely constant/degenerate): 0 
Significant Interaction (edges, FDR<0.05): 0 
Saved edge results: /data/home/tqi/data1/share/after_freesurfer/FILE/MIND_DK68_ANOVA//ANOVA_DK68_edge_results.csv 

=== Generating significant results tables ===
Significant Diagnosis degree results (n = 58 ): /data/home/tqi/data1/share/after_freesurfer/FILE/MIND_DK68_ANOVA//Significant_Diagnosis_DK68_degree_results.csv 
# A tibble: 58 × 17
   feature                n p_Diagnosis p_AgeGroup p_Interaction p_Diagnosis_FDR
   <chr>              <int>       <dbl>      <dbl>         <dbl>           <dbl>
 1 lh_inferiortempor…   308     1.78e-7 0.0453             0.348      0.00000151
 2 lh_lateralorbitof…   308     8.75e-8 0.935              0.582      0.00000151
 3 lh_rostralmiddlef…   308     9.70e-8 0.00000111         0.609      0.00000151
 4 lh_supramarginal     308     1.34e-7 0.0473             0.763      0.00000151
 5 rh_inferiorpariet…   308     1.56e-7 0.00467            0.498      0.00000151
 6 rh_lateralorbitof…   308     8.70e-8 0.0584             0.974      0.00000151
 7 rh_precentral        308     1.33e-7 0.230              0.340      0.00000151
 8 rh_supramarginal     308     4.36e-8 0.0261             0.693      0.00000151
 9 rh_precuneus         308     3.07e-7 0.849              0.538      0.00000232
10 lh_precuneus         308     3.60e-7 0.193              0.286      0.00000245
# ℹ 48 more rows
# ℹ 11 more variables: p_AgeGroup_FDR <dbl>, p_Interaction_FDR <dbl>,
#   eta2_Diagnosis <dbl>, eta2_AgeGroup <dbl>, eta2_Interaction <dbl>,
#   cohens_f_Diagnosis <dbl>, cohens_f_AgeGroup <dbl>,
#   cohens_f_Interaction <dbl>, mean_TD <dbl>, mean_DD <dbl>, direction <chr>
Significant Diagnosis edge results (n = 933 ): /data/home/tqi/data1/share/after_freesurfer/FILE/MIND_DK68_ANOVA//Significant_Diagnosis_DK68_edge_results.csv 
# A tibble: 933 × 19
   edge_id     i     j     n p_Diagnosis p_AgeGroup p_Interaction
     <int> <int> <int> <int>       <dbl>      <dbl>         <dbl>
 1     962    16    45   308    1.02e- 9     0.138         0.479 
 2    1177     1    50   308    9.67e-10     0.897         0.251 
 3    1551    11    57   308    1.23e- 9     0.0195        0.851 
 4     116    11    16   308    4.01e- 9     0.855         0.248 
 5     983    37    45   308    3.60e- 9     0.0599        0.0944
 6    1187    11    50   308    3.49e- 9     0.491         0.619 
 7    1221    45    50   308    2.70e- 9     0.278         0.566 
 8    1755    44    60   308    4.55e- 9     0.235         0.0807
 9    1585    45    57   308    5.70e- 9     0.776         0.670 
10    1588    48    57   308    9.64e- 9     0.0501        0.500 
# ℹ 923 more rows
# ℹ 12 more variables: p_Diagnosis_FDR <dbl>, p_AgeGroup_FDR <dbl>,
#   p_Interaction_FDR <dbl>, eta2_Diagnosis <dbl>, eta2_AgeGroup <dbl>,
#   eta2_Interaction <dbl>, cohens_f_Diagnosis <dbl>, cohens_f_AgeGroup <dbl>,
#   cohens_f_Interaction <dbl>, mean_TD <dbl>, mean_DD <dbl>, direction <chr>
Significant AgeGroup degree results (n = 21 ): /data/home/tqi/data1/share/after_freesurfer/FILE/MIND_DK68_ANOVA//Significant_AgeGroup_DK68_degree_results.csv 
# A tibble: 21 × 17
   feature                n p_Diagnosis p_AgeGroup p_Interaction p_Diagnosis_FDR
   <chr>              <int>       <dbl>      <dbl>         <dbl>           <dbl>
 1 rh_temporalpole      308     1.65e-1    4.99e-9       0.0355       0.175     
 2 rh_rostralmiddlef…   308     3.74e-2    4.57e-8       0.932        0.0438    
 3 lh_superiortempor…   308     6.51e-4    1.77e-7       0.218        0.00123   
 4 rh_superiortempor…   308     1.38e-3    2.13e-7       0.205        0.00228   
 5 lh_rostralmiddlef…   308     9.70e-8    1.11e-6       0.609        0.00000151
 6 lh_precentral        308     4.15e-5    3.42e-5       0.730        0.000124  
 7 lh_temporalpole      308     1.95e-2    8.35e-5       0.00679      0.0233    
 8 rh_postcentral       308     4.42e-1    1.75e-4       0.190        0.449     
 9 lh_postcentral       308     1.04e-3    7.03e-4       0.179        0.00187   
10 rh_lateraloccipit…   308     1.26e-6    9.25e-4       0.105        0.00000659
# ℹ 11 more rows
# ℹ 11 more variables: p_AgeGroup_FDR <dbl>, p_Interaction_FDR <dbl>,
#   eta2_Diagnosis <dbl>, eta2_AgeGroup <dbl>, eta2_Interaction <dbl>,
#   cohens_f_Diagnosis <dbl>, cohens_f_AgeGroup <dbl>,
#   cohens_f_Interaction <dbl>, mean_Child <dbl>, mean_Adult <dbl>,
#   direction <chr>
Significant AgeGroup edge results (n = 711 ): /data/home/tqi/data1/share/after_freesurfer/FILE/MIND_DK68_ANOVA//Significant_AgeGroup_DK68_edge_results.csv 
# A tibble: 711 × 19
   edge_id     i     j     n p_Diagnosis p_AgeGroup p_Interaction
     <int> <int> <int> <int>       <dbl>      <dbl>         <dbl>
 1     926    23    44   308     0.0725    8.90e-21        0.868 
 2    1951    60    63   308     0.552     1.42e-20        0.826 
 3    1853    23    62   308     0.100     7.69e-20        0.0569
 4     241    10    23   308     0.913     7.59e-18        0.238 
 5     235     4    23   308     0.720     1.97e-17        0.0284
 6    1584    44    57   308     0.0267    3.17e-17        0.494 
 7    1917    26    63   308     0.00703   8.56e-17        0.652 
 8     243    12    23   308     0.910     1.56e-16        0.296 
 9    1740    29    60   308     0.454     3.12e-16        0.676 
10    1544     4    57   308     0.245     4.04e-16        0.0927
# ℹ 701 more rows
# ℹ 12 more variables: p_Diagnosis_FDR <dbl>, p_AgeGroup_FDR <dbl>,
#   p_Interaction_FDR <dbl>, eta2_Diagnosis <dbl>, eta2_AgeGroup <dbl>,
#   eta2_Interaction <dbl>, cohens_f_Diagnosis <dbl>, cohens_f_AgeGroup <dbl>,
#   cohens_f_Interaction <dbl>, mean_Child <dbl>, mean_Adult <dbl>,
#   direction <chr>
…
