…
=== Running Edge-wise ANOVA (upper triangle) with Site as covariate ===
Edge chunk 1 / 3 - edges: 1000 
Edge chunk 2 / 3 - edges: 1000 
Edge chunk 3 / 3 - edges: 278 
Edge features with NA p-values (likely constant/degenerate): 0 
Significant Interaction (edges, FDR<0.05): 0 
Saved edge results: /data/home/tqi/data1/share/after_freesurfer/FILE/MIND_DK68_ANOVA_with_site//ANOVA_DK68_edge_results_with_site.csv 

=== Generating significant results tables ===
Significant Diagnosis degree results (n = 39 ): /data/home/tqi/data1/share/after_freesurfer/FILE/MIND_DK68_ANOVA_with_site//Significant_Diagnosis_DK68_degree_results_with_site.csv 
# A tibble: 39 × 17
   feature                n p_Diagnosis p_AgeGroup p_Interaction p_Diagnosis_FDR
   <chr>              <int>       <dbl>      <dbl>         <dbl>           <dbl>
 1 rh_supramarginal     308   0.0000143  0.276             0.692        0.000972
 2 lh_lateralorbitof…   308   0.0000613  0.0000537         0.566        0.00109 
 3 rh_posteriorcingu…   308   0.0000768  0.00614           0.360        0.00109 
 4 rh_precentral        308   0.0000798  0.0530            0.248        0.00109 
 5 rh_precuneus         308   0.0000604  0.000447          0.556        0.00109 
 6 lh_bankssts          308   0.000167   0.549             0.155        0.00114 
 7 lh_inferiortempor…   308   0.000132   0.0559            0.354        0.00114 
 8 lh_rostralmiddlef…   308   0.000154   0.750             0.524        0.00114 
 9 lh_supramarginal     308   0.000157   0.0310            0.653        0.00114 
10 rh_inferiorpariet…   308   0.000105   0.0938            0.461        0.00114 
# ℹ 29 more rows
# ℹ 11 more variables: p_AgeGroup_FDR <dbl>, p_Interaction_FDR <dbl>,
#   eta2_Diagnosis <dbl>, eta2_AgeGroup <dbl>, eta2_Interaction <dbl>,
#   cohens_f_Diagnosis <dbl>, cohens_f_AgeGroup <dbl>,
#   cohens_f_Interaction <dbl>, mean_TD <dbl>, mean_DD <dbl>, direction <chr>
Significant Diagnosis edge results (n = 362 ): /data/home/tqi/data1/share/after_freesurfer/FILE/MIND_DK68_ANOVA_with_site//Significant_Diagnosis_DK68_edge_results_with_site.csv 
# A tibble: 362 × 19
   edge_id     i     j     n p_Diagnosis p_AgeGroup p_Interaction
     <int> <int> <int> <int>       <dbl>      <dbl>         <dbl>
 1    1177     1    50   308 0.000000152 0.127              0.233
 2    1211    35    50   308 0.000000446 0.0292             0.845
 3    1551    11    57   308 0.000000823 0.0000163          0.762
 4    1575    35    57   308 0.00000125  0.00000633         0.550
 5     116    11    16   308 0.00000334  0.00127            0.206
 6     962    16    45   308 0.00000251  0.0246             0.428
 7    1548     8    57   308 0.00000326  0.124              0.465
 8    1187    11    50   308 0.00000472  0.00227            0.569
 9    1588    48    57   308 0.00000555  0.000272           0.516
10     641    11    37   308 0.00000825  0.000966           0.207
# ℹ 352 more rows
# ℹ 12 more variables: p_Diagnosis_FDR <dbl>, p_AgeGroup_FDR <dbl>,
#   p_Interaction_FDR <dbl>, eta2_Diagnosis <dbl>, eta2_AgeGroup <dbl>,
#   eta2_Interaction <dbl>, cohens_f_Diagnosis <dbl>, cohens_f_AgeGroup <dbl>,
#   cohens_f_Interaction <dbl>, mean_TD <dbl>, mean_DD <dbl>, direction <chr>
…
  <chr>               <int>       <dbl>      <dbl>         <dbl>           <dbl>
1 lh_lateralorbitofr…   308   0.0000613  0.0000537        0.566          0.00109
2 rh_precuneus          308   0.0000604  0.000447         0.556          0.00109
3 rh_temporalpole       308   0.746      0.000500         0.0406         0.768  
4 lh_precuneus          308   0.000339   0.00108          0.216          0.00164
5 rh_lateralorbitofr…   308   0.000259   0.00212          0.871          0.00140
6 rh_pericalcarine      308   0.830      0.00223          0.898          0.837  
7 lh_lateraloccipital   308   0.427      0.00399          0.658          0.468  
# ℹ 11 more variables: p_AgeGroup_FDR <dbl>, p_Interaction_FDR <dbl>,
#   eta2_Diagnosis <dbl>, eta2_AgeGroup <dbl>, eta2_Interaction <dbl>,
#   cohens_f_Diagnosis <dbl>, cohens_f_AgeGroup <dbl>,
#   cohens_f_Interaction <dbl>, mean_Child <dbl>, mean_Adult <dbl>,
#   direction <chr>
Significant AgeGroup edge results (n = 604 ): /data/home/tqi/data1/share/after_freesurfer/FILE/MIND_DK68_ANOVA_with_site//Significant_AgeGroup_DK68_edge_results_with_site.csv 
# A tibble: 604 × 19
   edge_id     i     j     n p_Diagnosis p_AgeGroup p_Interaction
     <int> <int> <int> <int>       <dbl>      <dbl>         <dbl>
 1    1853    23    62   308     0.00825   4.84e-13        0.0405
 2    1951    60    63   308     0.151     1.25e-12        0.709 
 3    1740    29    60   308     0.248     1.04e-10        0.644 
 4      55    10    11   308     0.0211    5.25e-10        0.987 
 5      64     9    12   308     0.901     5.63e-10        0.500 
 6     243    12    23   308     0.294     5.71e-10        0.300 
 7     926    23    44   308     0.746     3.68e-10        0.711 
 8     235     4    23   308     0.102     7.63e-10        0.0210
 9    2111    31    66   308     0.895     7.21e-10        0.132 
10    1389    11    54   308     0.0819    1.34e- 9        0.943 
# ℹ 594 more rows
# ℹ 12 more variables: p_Diagnosis_FDR <dbl>, p_AgeGroup_FDR <dbl>,
#   p_Interaction_FDR <dbl>, eta2_Diagnosis <dbl>, eta2_AgeGroup <dbl>,
#   eta2_Interaction <dbl>, cohens_f_Diagnosis <dbl>, cohens_f_AgeGroup <dbl>,
#   cohens_f_Interaction <dbl>, mean_Child <dbl>, mean_Adult <dbl>,
#   direction <chr>
…
