…
=== Running Edge-wise ANOVA (upper triangle) with Site as covariate ===
Edge chunk 1 / 3 - edges: 1000 
Edge chunk 2 / 3 - edges: 1000 
Edge chunk 3 / 3 - edges: 278 
Edge features with NA p-values (likely constant/degenerate): 0 
Significant Interaction (edges, FDR<0.05): 0 
Saved edge results: /data/home/tqi/data1/share/after_freesurfer/FILE/MIND_DK68_ANOVA_with_site//ANOVA_DK68_edge_results_with_site.csv 

=== Generating significant results tables ===
Significant Diagnosis degree results (n = 36 ): /data/home/tqi/data1/share/after_freesurfer/FILE/MIND_DK68_ANOVA_with_site//Significant_Diagnosis_DK68_degree_results_with_site.csv 
# A tibble: 36 × 17
   feature                n p_Diagnosis p_AgeGroup p_Interaction p_Diagnosis_FDR
   <chr>              <int>       <dbl>      <dbl>         <dbl>           <dbl>
 1 lh_bankssts          308   0.000155   0.482             0.148         0.00125
 2 lh_lateralorbitof…   308   0.0000689  0.0000398         0.515         0.00125
 3 lh_rostralmiddlef…   308   0.000124   0.857             0.544         0.00125
 4 lh_supramarginal     308   0.000165   0.0244            0.715         0.00125
 5 rh_inferiorpariet…   308   0.000148   0.0771            0.408         0.00125
 6 rh_posteriorcingu…   308   0.0000623  0.00413           0.427         0.00125
 7 rh_precentral        308   0.0000766  0.0455            0.290         0.00125
 8 rh_precuneus         308   0.000123   0.000400          0.470         0.00125
 9 rh_supramarginal     308   0.0000215  0.224             0.651         0.00125
10 lh_inferiortempor…   308   0.000205   0.0400            0.296         0.00138
# ℹ 26 more rows
# ℹ 11 more variables: p_AgeGroup_FDR <dbl>, p_Interaction_FDR <dbl>,
#   eta2_Diagnosis <dbl>, eta2_AgeGroup <dbl>, eta2_Interaction <dbl>,
#   cohens_f_Diagnosis <dbl>, cohens_f_AgeGroup <dbl>,
#   cohens_f_Interaction <dbl>, mean_TD <dbl>, mean_DD <dbl>, direction <chr>
Significant Diagnosis edge results (n = 364 ): /data/home/tqi/data1/share/after_freesurfer/FILE/MIND_DK68_ANOVA_with_site//Significant_Diagnosis_DK68_edge_results_with_site.csv 
# A tibble: 364 × 21
   edge_id     i     j region_i            region_j     n p_Diagnosis p_AgeGroup
     <int> <int> <int> <chr>               <chr>    <int>       <dbl>      <dbl>
 1    1177     1    50 lh_bankssts         rh_para…   308 0.000000118 0.0987    
 2    1211    35    50 rh_bankssts         rh_para…   308 0.000000651 0.0294    
 3    1551    11    57 lh_lateralorbitofr… rh_prec…   308 0.000000704 0.0000147 
 4     962    16    45 lh_paracentral      rh_late…   308 0.00000205  0.0231    
 5    1575    35    57 rh_bankssts         rh_prec…   308 0.00000167  0.00000688
 6     116    11    16 lh_lateralorbitofr… lh_para…   308 0.00000293  0.00109   
 7    1187    11    50 lh_lateralorbitofr… rh_para…   308 0.00000318  0.00238   
 8    1548     8    57 lh_inferiortemporal rh_prec…   308 0.00000341  0.128     
 9    1588    48    57 rh_middletemporal   rh_prec…   308 0.00000425  0.000288  
10    1541     1    57 lh_bankssts         rh_prec…   308 0.00000594  0.00390   
# ℹ 354 more rows
# ℹ 13 more variables: p_Interaction <dbl>, p_Diagnosis_FDR <dbl>,
#   p_AgeGroup_FDR <dbl>, p_Interaction_FDR <dbl>, eta2_Diagnosis <dbl>,
#   eta2_AgeGroup <dbl>, eta2_Interaction <dbl>, cohens_f_Diagnosis <dbl>,
#   cohens_f_AgeGroup <dbl>, cohens_f_Interaction <dbl>, mean_TD <dbl>,
#   mean_DD <dbl>, direction <chr>
…
1 lh_lateralorbitofr…   308   0.0000689  0.0000398        0.515          0.00125
2 rh_precuneus          308   0.000123   0.000400         0.470          0.00125
3 lh_precuneus          308   0.000462   0.000933         0.214          0.00225
4 rh_pericalcarine      308   0.786      0.00129          0.975          0.797  
5 rh_temporalpole       308   0.983      0.00121          0.0313         0.983  
6 rh_lateralorbitofr…   308   0.000244   0.00175          0.929          0.00138
7 lh_lateraloccipital   308   0.401      0.00342          0.620          0.447  
8 rh_posteriorcingul…   308   0.0000623  0.00413          0.427          0.00125
# ℹ 11 more variables: p_AgeGroup_FDR <dbl>, p_Interaction_FDR <dbl>,
#   eta2_Diagnosis <dbl>, eta2_AgeGroup <dbl>, eta2_Interaction <dbl>,
#   cohens_f_Diagnosis <dbl>, cohens_f_AgeGroup <dbl>,
#   cohens_f_Interaction <dbl>, mean_Child <dbl>, mean_Adult <dbl>,
#   direction <chr>
Significant AgeGroup edge results (n = 605 ): /data/home/tqi/data1/share/after_freesurfer/FILE/MIND_DK68_ANOVA_with_site//Significant_AgeGroup_DK68_edge_results_with_site.csv 
# A tibble: 605 × 21
   edge_id     i     j region_i            region_j     n p_Diagnosis p_AgeGroup
     <int> <int> <int> <chr>               <chr>    <int>       <dbl>      <dbl>
 1    1853    23    62 lh_precentral       rh_supe…   308     0.00816   4.93e-13
 2    1951    60    63 rh_rostralmiddlefr… rh_supe…   308     0.158     3.26e-12
 3    1740    29    60 lh_superiortemporal rh_rost…   308     0.219     2.86e-10
 4      64     9    12 lh_isthmuscingulate lh_ling…   308     0.850     4.57e-10
 5      55    10    11 lh_lateraloccipital lh_late…   308     0.0183    5.87e-10
 6    1389    11    54 lh_lateralorbitofr… rh_peri…   308     0.0716    7.79e-10
 7     243    12    23 lh_lingual          lh_prec…   308     0.333     1.15e- 9
 8     235     4    23 lh_cuneus           lh_prec…   308     0.141     1.87e- 9
 9     926    23    44 lh_precentral       rh_late…   308     0.703     1.85e- 9
10    2111    31    66 lh_frontalpole      rh_temp…   308     0.988     1.54e- 9
# ℹ 595 more rows
# ℹ 13 more variables: p_Interaction <dbl>, p_Diagnosis_FDR <dbl>,
#   p_AgeGroup_FDR <dbl>, p_Interaction_FDR <dbl>, eta2_Diagnosis <dbl>,
#   eta2_AgeGroup <dbl>, eta2_Interaction <dbl>, cohens_f_Diagnosis <dbl>,
#   cohens_f_AgeGroup <dbl>, cohens_f_Interaction <dbl>, mean_Child <dbl>,
#   mean_Adult <dbl>, direction <chr>
…
