…
=== Running Edge-wise ANOVA (upper triangle) ===
Edge chunk 1 / 3 - edges: 1000 
Edge chunk 2 / 3 - edges: 1000 
Edge chunk 3 / 3 - edges: 278 
Edge features with NA p-values (likely constant/degenerate): 0 
Significant Interaction (edges, FDR<0.05): 0 
Saved edge results: /data/home/tqi/data1/share/after_freesurfer/FILE/MIND_DK68_ANOVA//ANOVA_DK68_edge_results.csv 

=== Generating significant results tables ===
Significant Diagnosis degree results (n = 40 ): /data/home/tqi/data1/share/after_freesurfer/FILE/MIND_DK68_ANOVA//Significant_Diagnosis_DK68_degree_results.csv 
# A tibble: 40 × 17
   feature                n p_Diagnosis p_AgeGroup p_Interaction p_Diagnosis_FDR
   <chr>              <int>       <dbl>      <dbl>         <dbl>           <dbl>
 1 lh_inferiortempor…   308   0.0000585  0.0421            0.351        0.000529
 2 lh_lateralorbitof…   308   0.0000242  0.0000181         0.570        0.000529
 3 lh_rostralmiddlef…   308   0.0000590  0.563             0.522        0.000529
 4 rh_inferiorpariet…   308   0.0000615  0.0610            0.462        0.000529
 5 rh_lateralorbitof…   308   0.0000623  0.00307           0.875        0.000529
 6 rh_precentral        308   0.0000377  0.0343            0.249        0.000529
 7 rh_precuneus         308   0.0000348  0.0000991         0.560        0.000529
 8 rh_supramarginal     308   0.0000105  0.158             0.692        0.000529
 9 lh_supramarginal     308   0.0000802  0.0180            0.654        0.000546
10 rh_posteriorcingu…   308   0.0000760  0.00107           0.353        0.000546
# ℹ 30 more rows
# ℹ 11 more variables: p_AgeGroup_FDR <dbl>, p_Interaction_FDR <dbl>,
#   eta2_Diagnosis <dbl>, eta2_AgeGroup <dbl>, eta2_Interaction <dbl>,
#   cohens_f_Diagnosis <dbl>, cohens_f_AgeGroup <dbl>,
#   cohens_f_Interaction <dbl>, mean_TD <dbl>, mean_DD <dbl>, direction <chr>
Significant Diagnosis edge results (n = 424 ): /data/home/tqi/data1/share/after_freesurfer/FILE/MIND_DK68_ANOVA//Significant_Diagnosis_DK68_edge_results.csv 
# A tibble: 424 × 19
   edge_id     i     j     n  p_Diagnosis  p_AgeGroup p_Interaction
     <int> <int> <int> <int>        <dbl>       <dbl>         <dbl>
 1    1177     1    50   308 0.0000000670 0.0765             0.233 
 2    1211    35    50   308 0.000000285  0.00703            0.851 
 3    1551    11    57   308 0.000000212  0.00000345         0.766 
 4     962    16    45   308 0.000000459  0.0338             0.427 
 5     116    11    16   308 0.000000964  0.000743           0.206 
 6    1548     8    57   308 0.00000109   0.102              0.468 
 7    1575    35    57   308 0.000000811  0.000000119        0.539 
 8    1187    11    50   308 0.00000141   0.000985           0.577 
 9    1588    48    57   308 0.00000170   0.0000708          0.506 
10    1755    44    60   308 0.00000212   0.000902           0.0493
# ℹ 414 more rows
# ℹ 12 more variables: p_Diagnosis_FDR <dbl>, p_AgeGroup_FDR <dbl>,
#   p_Interaction_FDR <dbl>, eta2_Diagnosis <dbl>, eta2_AgeGroup <dbl>,
#   eta2_Interaction <dbl>, cohens_f_Diagnosis <dbl>, cohens_f_AgeGroup <dbl>,
#   cohens_f_Interaction <dbl>, mean_TD <dbl>, mean_DD <dbl>, direction <chr>
…
12 rh_paracentral       308   0.000956   0.00478          0.564         0.00381 
13 rh_frontalpole       308   0.632      0.00599          0.261         0.671   
14 rh_parahippocampal   308   0.0468     0.00666          0.271         0.0724  
15 lh_caudalmiddlefr…   308   0.0165     0.00912          0.743         0.0320  
16 lh_lateraloccipit…   308   0.263      0.00999          0.657         0.300   
17 rh_parsopercularis   308   0.111      0.00887          0.0872        0.154   
18 rh_parstriangular…   308   0.0217     0.00977          0.490         0.0389  
19 rh_rostralmiddlef…   308   0.463      0.0137           0.933         0.508   
# ℹ 11 more variables: p_AgeGroup_FDR <dbl>, p_Interaction_FDR <dbl>,
#   eta2_Diagnosis <dbl>, eta2_AgeGroup <dbl>, eta2_Interaction <dbl>,
#   cohens_f_Diagnosis <dbl>, cohens_f_AgeGroup <dbl>,
#   cohens_f_Interaction <dbl>, mean_Child <dbl>, mean_Adult <dbl>,
#   direction <chr>
Significant AgeGroup edge results (n = 717 ): /data/home/tqi/data1/share/after_freesurfer/FILE/MIND_DK68_ANOVA//Significant_AgeGroup_DK68_edge_results.csv 
# A tibble: 717 × 19
   edge_id     i     j     n p_Diagnosis p_AgeGroup p_Interaction
     <int> <int> <int> <int>       <dbl>      <dbl>         <dbl>
 1    1853    23    62   308     0.00581   7.31e-15       0.0425 
 2    1951    60    63   308     0.122     7.39e-15       0.716  
 3     926    23    44   308     0.918     3.96e-13       0.722  
 4      64     9    12   308     0.969     4.60e-12       0.489  
 5     235     4    23   308     0.102     5.63e-12       0.0209 
 6     243    12    23   308     0.289     6.21e-12       0.300  
 7    1740    29    60   308     0.188     3.92e-12       0.649  
 8     241    10    23   308     0.0606    9.27e-11       0.197  
 9    2271    60    68   308     0.158     9.00e-11       0.490  
10     374    23    28   308     0.0224    1.13e-10       0.00595
# ℹ 707 more rows
# ℹ 12 more variables: p_Diagnosis_FDR <dbl>, p_AgeGroup_FDR <dbl>,
#   p_Interaction_FDR <dbl>, eta2_Diagnosis <dbl>, eta2_AgeGroup <dbl>,
#   eta2_Interaction <dbl>, cohens_f_Diagnosis <dbl>, cohens_f_AgeGroup <dbl>,
#   cohens_f_Interaction <dbl>, mean_Child <dbl>, mean_Adult <dbl>,
#   direction <chr>
…
