…
=== Generating significant results tables ===
Significant Diagnosis degree results (n = 75 ): /data/home/tqi/data1/share/after_freesurfer/FILE/MIND_ANOVA_with_site/Significant_Diagnosis_DK318_degree_results.csv 
# A tibble: 75 × 17
   feature                n p_Diagnosis p_AgeGroup p_Interaction p_Diagnosis_FDR
   <chr>              <int>       <dbl>      <dbl>         <dbl>           <dbl>
 1 rh_precentral_par…   289 0.000000316    9.83e-6         0.124        0.000101
 2 lh_superiortempor…   289 0.00000390     8.05e-2         0.995        0.000620
 3 rh_precentral_par…   289 0.00000908     1.51e-9         0.451        0.000963
 4 rh_inferiorpariet…   289 0.0000252      4.17e-1         0.702        0.00200 
 5 rh_supramarginal_…   289 0.0000939      3.33e-3         0.929        0.00597 
 6 rh_supramarginal_…   289 0.000122       1.07e-1         0.723        0.00649 
 7 rh_precentral_par…   289 0.000212       5.87e-3         0.348        0.00965 
 8 lh_medialorbitofr…   289 0.000289       4.42e-3         0.665        0.0102  
 9 rh_entorhinal_par…   289 0.000269       3.11e-1         0.153        0.0102  
10 rh_insula_part3      289 0.000357       1.87e-2         0.209        0.0113  
# ℹ 65 more rows
# ℹ 11 more variables: p_AgeGroup_FDR <dbl>, p_Interaction_FDR <dbl>,
#   eta2_Diagnosis <dbl>, eta2_AgeGroup <dbl>, eta2_Interaction <dbl>,
#   cohens_f_Diagnosis <dbl>, cohens_f_AgeGroup <dbl>,
#   cohens_f_Interaction <dbl>, mean_TD <dbl>, mean_DD <dbl>, direction <chr>
Significant Diagnosis edge results (n = 1179 ): /data/home/tqi/data1/share/after_freesurfer/FILE/MIND_ANOVA_with_site/Significant_Diagnosis_DK318_edge_results.csv 
# A tibble: 1,179 × 21
   edge_id     i     j region_i            region_j     n p_Diagnosis p_AgeGroup
     <int> <int> <int> <chr>               <chr>    <int>       <dbl>      <dbl>
 1   31655    29   253 lh_inferiortempora… rh_prec…   289     7.96e-9 0.0243    
 2   31628     2   253 lh_bankssts_part2   rh_prec…   289     9.37e-8 0.000214  
 3   31656    30   253 lh_inferiortempora… rh_prec…   289     1.00e-7 0.114     
 4   31673    47   253 lh_lateralorbitofr… rh_prec…   289     9.44e-8 0.00000120
 5   31684    58   253 lh_medialorbitofro… rh_prec…   289     9.76e-8 0.0000516 
 6   46501   141   306 lh_superiortempora… rh_supr…   289     3.28e-7 0.912     
 7   31689    63   253 lh_middletemporal_… rh_prec…   289     4.17e-7 0.000169  
 8   49859    89   317 lh_precentral_part2 rh_insu…   289     4.63e-7 0.774     
 9    4220    34    93 lh_isthmuscingulat… lh_prec…   289     6.63e-7 0.0000421 
10   20773    67   205 lh_paracentral_par… rh_late…   289     1.87e-6 0.0364    
# ℹ 1,169 more rows
# ℹ 13 more variables: p_Interaction <dbl>, p_Diagnosis_FDR <dbl>,
#   p_AgeGroup_FDR <dbl>, p_Interaction_FDR <dbl>, eta2_Diagnosis <dbl>,
#   eta2_AgeGroup <dbl>, eta2_Interaction <dbl>, cohens_f_Diagnosis <dbl>,
#   cohens_f_AgeGroup <dbl>, cohens_f_Interaction <dbl>, mean_TD <dbl>,
#   mean_DD <dbl>, direction <chr>
Significant AgeGroup degree results (n = 153 ): /data/home/tqi/data1/share/after_freesurfer/FILE/MIND_ANOVA_with_site/Significant_AgeGroup_DK318_degree_results.csv 
# A tibble: 153 × 17
   feature                n p_Diagnosis p_AgeGroup p_Interaction p_Diagnosis_FDR
   <chr>              <int>       <dbl>      <dbl>         <dbl>           <dbl>
 1 rh_superiorfronta…   289  0.0487       1.78e-12        0.131         0.116   
 2 rh_precentral_par…   289  0.00000908   1.51e- 9        0.451         0.000963
 3 lh_precentral_par…   289  0.139        3.09e- 8        0.108         0.233   
 4 lh_precentral_par…   289  0.351        6.02e- 8        0.0336        0.448   
 5 rh_lateralorbitof…   289  0.0445       5.01e- 8        0.258         0.113   
 6 lh_superiorfronta…   289  0.325        1.94e- 7        0.179         0.423   
 7 rh_precentral_par…   289  0.00279      1.96e- 7        0.102         0.0245  
 8 lh_supramarginal_…   289  0.00601      4.75e- 7        0.436         0.0340  
 9 rh_lateralorbitof…   289  0.0970       4.57e- 7        0.942         0.183   
10 lh_superiorfronta…   289  0.111        5.92e- 7        0.933         0.194   
# ℹ 143 more rows
# ℹ 11 more variables: p_AgeGroup_FDR <dbl>, p_Interaction_FDR <dbl>,
#   eta2_Diagnosis <dbl>, eta2_AgeGroup <dbl>, eta2_Interaction <dbl>,
#   cohens_f_Diagnosis <dbl>, cohens_f_AgeGroup <dbl>,
#   cohens_f_Interaction <dbl>, mean_Child <dbl>, mean_Adult <dbl>,
#   direction <chr>
Significant AgeGroup edge results (n = 8896 ): /data/home/tqi/data1/share/after_freesurfer/FILE/MIND_ANOVA_with_site/Significant_AgeGroup_DK318_edge_results.csv 
# A tibble: 8,896 × 21
   edge_id     i     j region_i            region_j     n p_Diagnosis p_AgeGroup
     <int> <int> <int> <chr>               <chr>    <int>       <dbl>      <dbl>
 1   31357   232   251 rh_parstriangulari… rh_prec…   289   0.0000750   8.53e-15
 2   30861   233   249 rh_parstriangulari… rh_prec…   289   0.0000149   9.51e-14
 3   31198    73   251 lh_parstriangulari… rh_prec…   289   0.000103    1.33e-13
 4   39030   249   280 rh_precentral_part3 rh_supe…   289   0.0133      3.34e-13
 5    3990    74    90 lh_parstriangulari… lh_prec…   289   0.0142      7.31e-13
 6   26681   116   232 lh_superiorfrontal… rh_pars…   289   0.222       5.97e-13
 7   30702    74   249 lh_parstriangulari… rh_prec…   289   0.0000154   6.44e-13
 8   30860   232   249 rh_parstriangulari… rh_prec…   289   0.00608     7.59e-13
 9   38871    90   280 lh_precentral_part3 rh_supe…   289   0.514       5.44e-13
10   30775   147   249 lh_supramarginal_p… rh_prec…   289   0.00276     1.49e-12
# ℹ 8,886 more rows
# ℹ 13 more variables: p_Interaction <dbl>, p_Diagnosis_FDR <dbl>,
#   p_AgeGroup_FDR <dbl>, p_Interaction_FDR <dbl>, eta2_Diagnosis <dbl>,
#   eta2_AgeGroup <dbl>, eta2_Interaction <dbl>, cohens_f_Diagnosis <dbl>,
#   cohens_f_AgeGroup <dbl>, cohens_f_Interaction <dbl>, mean_Child <dbl>,
#   mean_Adult <dbl>, direction <chr>
…
